# This file uses centimeters as units for non-parametric coordinates.

mtllib Pawn_low.mtl
g default
v 1.419827 18.363230 -1.419826
v 0.000006 18.453302 -1.814730
v -1.419824 18.363230 -1.419826
v -1.814723 18.453299 0.000000
v -1.419824 18.363230 1.419826
v 0.000006 18.453299 1.814730
v 1.419828 18.363230 1.419824
v 1.814734 18.453299 -0.000000
v 0.000000 -0.000000 0.000000
v 0.000034 18.652245 -0.000000
v 3.820765 1.197103 -3.820763
v 5.403378 1.197103 0.000000
v 3.820765 1.197103 3.820763
v 0.000000 1.197103 5.403377
v -3.820765 1.197103 3.820763
v -5.403378 1.197103 0.000000
v -3.820765 1.197103 -3.820763
v 0.000000 1.197103 -5.403377
v 3.834335 4.106333 -3.834336
v 5.422572 4.106332 0.000000
v 3.834335 4.106333 3.834336
v 0.000000 4.106332 5.422570
v -3.834335 4.106333 3.834336
v -5.422572 4.106332 -0.000000
v -3.834335 4.106333 -3.834336
v 0.000000 4.106332 -5.422570
v 2.890392 5.731787 -2.890393
v 4.087633 5.731787 0.000000
v 2.890392 5.731787 2.890393
v 0.000000 5.731787 4.087633
v -2.890392 5.731787 2.890393
v -4.087633 5.731787 -0.000000
v -2.890392 5.731787 -2.890393
v 0.000000 5.731787 -4.087633
v 2.280679 7.059855 -2.280678
v 3.225364 7.059855 0.000000
v 2.280679 7.059855 2.280678
v 0.000000 7.059855 3.225364
v -2.280679 7.059855 2.280678
v -3.225364 7.059855 -0.000000
v -2.280679 7.059855 -2.280678
v 0.000000 7.059855 -3.225364
v 1.494552 8.849613 -1.494552
v 2.113614 8.849612 -0.000000
v 1.494552 8.849612 1.494552
v 0.000000 8.849612 2.113614
v -1.494552 8.849612 1.494552
v -2.113614 8.849612 0.000000
v -1.494552 8.849612 -1.494552
v 0.000000 8.849612 -2.113614
v 2.599025 12.227515 -2.599023
v 3.675577 12.227515 0.000000
v 2.599025 12.227515 2.599023
v 0.000000 12.227515 3.675574
v -2.599025 12.227515 2.599023
v -3.675577 12.227515 -0.000000
v -2.599025 12.227515 -2.599023
v 0.000000 12.227515 -3.675574
v 2.653094 15.301073 -2.653097
v 3.752043 15.301073 -0.000000
v 2.653095 15.301073 2.653097
v 0.000000 15.301073 3.752044
v -2.653094 15.301073 2.653097
v -3.752043 15.301073 0.000000
v -2.653094 15.301073 -2.653097
v 0.000000 15.301073 -3.752044
v 2.442613 16.729908 -2.442616
v 3.454381 16.729908 -0.000000
v 2.442618 16.729908 2.442615
v 0.000001 16.729908 3.454381
v -2.442613 16.729908 2.442616
v -3.454380 16.729908 -0.000000
v -2.442613 16.729908 -2.442617
v 0.000000 16.729908 -3.454382
v 2.521109 14.154207 -2.521110
v 0.000000 14.154207 -3.565387
v -2.521109 14.154207 -2.521110
v -3.565385 14.154207 0.000000
v -2.521109 14.154207 2.521110
v 0.000000 14.154207 3.565387
v 2.521109 14.154207 2.521110
v 3.565385 14.154207 0.000000
v 2.821417 6.960532 -2.821416
v 0.000000 6.960532 -3.990082
v -2.821417 6.960532 -2.821416
v -3.990084 6.960532 -0.000000
v -2.821417 6.960532 2.821416
v 0.000000 6.960532 3.990082
v 2.821417 6.960532 2.821416
v 3.990084 6.960532 0.000000
v 3.702785 0.346425 -3.702785
v 0.000000 0.346425 -5.236530
v -3.702785 0.346425 -3.702785
v -5.236532 0.346425 0.000000
v -3.702785 0.346425 3.702785
v 0.000000 0.346425 5.236530
v 3.702785 0.346425 3.702785
v 5.236532 0.346425 0.000000
v 0.964830 11.307265 -0.964828
v 0.000000 11.307265 -1.364477
v -0.964830 11.307265 -0.964828
v -1.364476 11.307265 -0.000000
v -0.964830 11.307265 0.964828
v 0.000000 11.307265 1.364477
v 0.964830 11.307265 0.964828
v 1.364476 11.307265 -0.000000
v 2.026362 13.277625 -2.026360
v 1.867714 12.982394 -1.867712
v 2.641346 12.982395 -0.000000
v 2.865705 13.277626 -0.000000
v 1.867714 12.982395 1.867712
v 2.026362 13.277625 2.026360
v 0.000000 12.982395 2.641345
v 0.000000 13.277625 2.865706
v -1.867714 12.982395 1.867712
v -2.026362 13.277625 2.026360
v -2.641346 12.982395 0.000000
v -2.865705 13.277625 -0.000000
v -1.867714 12.982395 -1.867712
v -2.026362 13.277625 -2.026360
v 0.000000 12.982395 -2.641345
v 0.000000 13.277625 -2.865706
v 3.590995 0.001091 -3.590992
v 0.000000 0.001091 -5.078430
v -3.590995 0.001091 -3.590992
v -5.078431 0.001091 0.000000
v -3.590994 0.001091 3.590992
v 0.000000 0.001091 5.078430
v 3.590995 0.001091 3.590992
v 5.078431 0.001091 0.000000
v 3.536329 2.034396 -3.536326
v 0.000000 2.034396 -5.001132
v -3.536329 2.034397 -3.536326
v -5.001136 2.034396 0.000000
v -3.536329 2.034397 3.536326
v 0.000000 2.034396 5.001132
v 3.536329 2.034397 3.536326
v 5.001136 2.034396 -0.000000
v 2.468123 11.339501 -2.468122
v 3.490455 11.339500 0.000000
v 2.468123 11.339500 2.468122
v -0.000000 11.339500 3.490453
v -2.468123 11.339500 2.468122
v -3.490455 11.339500 -0.000000
v -2.468123 11.339500 -2.468122
v 0.000000 11.339501 -3.490453
v 2.019729 17.730417 -2.019731
v 2.856330 17.730415 -0.000000
v 2.019732 17.730415 2.019728
v 0.000000 17.730415 2.856331
v -2.019728 17.730415 2.019731
v -2.856330 17.730415 -0.000000
v -2.019729 17.730415 -2.019731
v 0.000000 17.730415 -2.856332
v 0.520530 11.307264 1.256671
v 1.256670 11.307264 0.520529
v 1.256670 11.307264 -0.520529
v 2.432657 12.982395 -1.007639
v 2.639291 13.277627 -1.093230
v 3.385175 12.227515 -1.402184
v 2.360172 12.546283 -2.360170
v 3.337788 12.546283 -0.000000
v 3.385175 12.227515 1.402184
v 2.360172 12.546283 2.360170
v 1.402185 12.227515 3.385172
v 0.000000 12.546283 3.337785
v -1.402185 12.227515 3.385172
v -2.360172 12.546283 2.360170
v -3.385175 12.227515 1.402184
v -3.337788 12.546283 0.000000
v -3.385175 12.227515 -1.402184
v -2.360172 12.546283 -2.360170
v -1.402185 12.227515 -3.385172
v 0.000000 12.546283 -3.337785
v 1.402185 12.227515 -3.385172
v 1.093231 13.277627 -2.639291
v 0.000000 13.659743 -3.217902
v 2.275401 13.659743 -2.275400
v -1.093231 13.277627 -2.639291
v -2.275401 13.659743 -2.275400
v -2.639291 13.277627 -1.093230
v -3.217900 13.659743 0.000000
v -2.639291 13.277627 1.093230
v -2.275401 13.659743 2.275400
v -1.093231 13.277627 2.639291
v 0.000000 13.659743 3.217902
v 1.093231 13.277627 2.639291
v 2.275401 13.659743 2.275400
v 2.639291 13.277627 1.093230
v 3.217900 13.659743 0.000000
v 2.432657 12.982395 1.007639
v 1.007640 12.982395 2.432655
v -1.007640 12.982395 2.432656
v -2.432657 12.982395 1.007639
v -2.432657 12.982395 -1.007639
v -1.007640 12.982395 -2.432655
v 1.007640 12.982395 -2.432655
v 1.792789 -0.000000 -1.792788
v -1.792789 -0.000000 -1.792788
v -1.792789 -0.000000 1.792788
v 1.792789 -0.000000 1.792788
v 4.677192 0.001091 -1.937355
v 1.937357 0.001091 -4.677191
v -1.937357 0.001091 -4.677191
v -4.677192 0.001091 -1.937355
v -4.677192 0.001091 1.937355
v -1.937357 0.001091 4.677191
v 1.937357 0.001091 4.677191
v 4.677192 0.001091 1.937355
v 1.907863 2.034396 -4.605996
v 5.388072 3.128918 0.000000
v 3.809937 3.128918 -3.809937
v 3.809937 3.128918 3.809937
v 0.000000 3.128918 5.388069
v -3.809937 3.128918 3.809937
v -5.388072 3.128918 0.000000
v -3.809937 3.128918 -3.809937
v 0.000000 3.128918 -5.388069
v 0.000000 1.590416 -5.267752
v 3.724861 1.590417 -3.724858
v -3.724861 1.590417 -3.724858
v -5.267754 1.590416 -0.000000
v -3.724861 1.590417 3.724858
v 0.000000 1.590416 5.267752
v 3.724861 1.590417 3.724858
v 5.267754 1.590416 0.000000
v -1.907863 2.034396 -4.605996
v -4.605999 2.034396 -1.907861
v -4.605999 2.034396 1.907861
v -1.907863 2.034396 4.605996
v 1.907863 2.034396 4.605996
v 4.605999 2.034396 1.907861
v 4.605999 2.034396 -1.907861
v 2.606387 11.841155 -2.606385
v 3.685989 11.841155 -0.000000
v 2.606387 11.841155 2.606385
v 0.000000 11.841155 3.685985
v -2.606387 11.841155 2.606385
v -3.685989 11.841155 0.000000
v -2.606387 11.841155 -2.606385
v 0.000000 11.841155 -3.685985
v 1.331563 11.339499 -3.214676
v 3.214679 11.339499 -1.331562
v 3.214679 11.339499 1.331562
v 1.331563 11.339499 3.214676
v -1.331563 11.339499 3.214677
v -3.214679 11.339499 1.331562
v -3.214679 11.339499 -1.331562
v -1.331563 11.339499 -3.214676
v 1.711308 18.140686 -1.711309
v 2.420156 18.140686 -0.000000
v 1.711309 18.140686 1.711307
v 0.000000 18.140686 2.420157
v -1.711308 18.140686 1.711309
v -2.420156 18.140686 0.000000
v -1.711308 18.140686 -1.711309
v 0.000000 18.140686 -2.420157
v 0.000023 18.611641 -0.967753
v -0.822818 18.446533 -1.671351
v -1.671346 18.446533 -0.822822
v -0.967729 18.611641 0.000000
v -1.671346 18.446533 0.822822
v -0.822818 18.446533 1.671351
v 0.000023 18.611641 0.967753
v 0.822826 18.446533 1.671349
v 1.671354 18.446533 0.822821
v 0.967775 18.611641 -0.000000
v 1.671353 18.446533 -0.822822
v 0.822826 18.446533 -1.671351
v 4.994141 4.106332 -2.068640
v 3.391448 5.025818 -3.391450
v 3.764674 5.731788 -1.559379
v 4.796234 5.025818 -0.000000
v 4.994141 4.106332 2.068640
v 3.764674 5.731788 1.559379
v 3.391448 5.025818 3.391450
v 2.068640 4.106332 4.994141
v 1.559379 5.731788 3.764675
v 0.000000 5.025818 4.796233
v -2.068640 4.106332 4.994141
v -1.559379 5.731788 3.764675
v -3.391448 5.025818 3.391450
v -4.994141 4.106332 2.068640
v -3.764674 5.731788 1.559379
v -4.796234 5.025818 0.000000
v -4.994141 4.106332 -2.068640
v -3.764674 5.731788 -1.559379
v -3.391448 5.025818 -3.391450
v -2.068640 4.106332 -4.994141
v -1.559379 5.731788 -3.764675
v 0.000000 5.025818 -4.796233
v 2.068640 4.106332 -4.994141
v 1.559379 5.731788 -3.764675
v 2.970533 7.059854 -1.230436
v 1.877409 7.801283 -1.877409
v 1.946621 8.849611 -0.806318
v 2.655055 7.801283 0.000000
v 2.970533 7.059854 1.230436
v 1.946621 8.849611 0.806318
v 1.877409 7.801283 1.877409
v 1.230436 7.059854 2.970533
v 0.806317 8.849611 1.946621
v 0.000000 7.801283 2.655056
v -1.230436 7.059854 2.970533
v -0.806317 8.849611 1.946621
v -1.877409 7.801283 1.877409
v -2.970533 7.059854 1.230436
v -1.946621 8.849611 0.806318
v -2.655055 7.801283 -0.000000
v -2.970533 7.059854 -1.230436
v -1.946621 8.849611 -0.806318
v -1.877409 7.801283 -1.877409
v -1.230436 7.059854 -2.970533
v -0.806317 8.849611 -1.946621
v 0.000000 7.801283 -2.655056
v 1.230436 7.059854 -2.970533
v 0.806317 8.849611 -1.946621
v 3.283689 14.154209 -1.360150
v 2.640149 14.689244 -2.640151
v 3.455599 15.301075 -1.431357
v 3.733735 14.689244 0.000000
v 3.283689 14.154209 1.360150
v 3.455599 15.301075 1.431357
v 2.640149 14.689244 2.640151
v 1.360149 14.154209 3.283691
v 1.431356 15.301075 3.455601
v 0.000000 14.689244 3.733737
v -1.360149 14.154209 3.283691
v -1.431355 15.301075 3.455601
v -2.640149 14.689244 2.640151
v -3.283689 14.154209 1.360150
v -3.455599 15.301075 1.431357
v -3.733735 14.689244 0.000000
v -3.283689 14.154209 -1.360150
v -3.455599 15.301075 -1.431357
v -2.640149 14.689244 -2.640151
v -1.360149 14.154209 -3.283691
v -1.431355 15.301075 -3.455601
v 0.000000 14.689244 -3.733737
v 1.360149 14.154209 -3.283691
v 1.431355 15.301075 -3.455601
v 2.580515 16.025928 -2.580518
v 3.181454 16.729908 -1.317802
v 3.649402 16.025928 -0.000000
v 3.181457 16.729908 1.317801
v 2.580518 16.025928 2.580517
v 1.317803 16.729908 3.181455
v 0.000000 16.025928 3.649403
v -1.317800 16.729908 3.181456
v -2.580515 16.025928 2.580518
v -3.181454 16.729908 1.317802
v -3.649402 16.025928 0.000000
v -3.181454 16.729908 -1.317802
v -2.580515 16.025928 -2.580518
v -1.317800 16.729908 -3.181456
v 0.000000 16.025928 -3.649403
v 1.317800 16.729908 -3.181456
v 2.259591 17.279114 -2.259594
v 2.630654 17.730417 -1.089653
v 3.195548 17.279114 -0.000000
v 2.630656 17.730417 1.089652
v 2.259595 17.279114 2.259592
v 1.089654 17.730417 2.630655
v 0.000001 17.279114 3.195548
v -1.089652 17.730417 2.630656
v -2.259591 17.279114 2.259594
v -2.630654 17.730417 1.089653
v -3.195547 17.279114 0.000000
v -2.630654 17.730417 -1.089653
v -2.259591 17.279114 -2.259594
v -1.089652 17.730417 -2.630656
v 0.000000 17.279114 -3.195548
v 1.089652 17.730417 -2.630656
v 2.615100 6.935076 -2.615099
v 1.522167 6.960532 -3.674832
v 0.000000 6.935076 -3.698308
v 2.840371 6.669801 -2.840369
v 0.000000 6.669801 -4.016888
v 0.000000 6.068657 -3.875342
v 2.740281 6.068657 -2.740281
v -2.740281 6.068657 -2.740281
v -3.875341 6.068657 0.000000
v -2.740281 6.068657 2.740281
v 0.000000 6.068657 3.875342
v 2.740281 6.068657 2.740281
v 3.875341 6.068657 -0.000000
v -1.522167 6.960532 -3.674832
v -2.615100 6.935076 -2.615099
v -2.840371 6.669801 -2.840369
v -3.674834 6.960532 -1.522166
v -3.698308 6.935076 0.000000
v -4.016888 6.669801 0.000000
v -3.674834 6.960532 1.522166
v -2.615100 6.935076 2.615099
v -2.840371 6.669801 2.840369
v -1.522167 6.960532 3.674832
v 0.000000 6.935076 3.698308
v 0.000000 6.669801 4.016888
v 1.522167 6.960532 3.674832
v 2.615100 6.935076 2.615099
v 2.840371 6.669801 2.840369
v 3.674834 6.960532 1.522166
v 3.698308 6.935076 -0.000000
v 4.016888 6.669801 0.000000
v 3.674834 6.960532 -1.522166
v 4.822800 0.346425 -1.997669
v 1.997668 0.346425 -4.822799
v -1.997668 0.346425 -4.822799
v -4.822800 0.346425 -1.997669
v -4.822800 0.346425 1.997669
v -1.997668 0.346425 4.822799
v 1.997668 0.346425 4.822799
v 4.822800 0.346425 1.997669
v 0.000000 0.741907 -5.357041
v 2.061319 1.197103 -4.976463
v 3.788000 0.741907 -3.788000
v -3.788000 0.741907 -3.788000
v -2.061319 1.197103 -4.976463
v -5.357043 0.741907 0.000000
v -4.976464 1.197103 -2.061318
v -3.788000 0.741907 3.788000
v -4.976465 1.197103 2.061318
v 0.000000 0.741907 5.357041
v -2.061319 1.197103 4.976463
v 3.788000 0.741907 3.788000
v 2.061319 1.197103 4.976463
v 5.357043 0.741907 0.000000
v 4.976464 1.197103 2.061318
v 4.976465 1.197103 -2.061318
v 0.520530 11.307264 -1.256671
v -0.520530 11.307264 -1.256671
v -1.256670 11.307264 -0.520529
v -1.256670 11.307264 0.520529
v -0.520530 11.307264 1.256671
v -0.891276 18.584572 -0.891292
v -0.891276 18.584572 0.891292
v 0.891306 18.584572 0.891291
v 0.891306 18.584572 -0.891292
v 4.417290 5.025817 -1.829702
v 4.417290 5.025817 1.829702
v 1.829700 5.025817 4.417290
v -1.829700 5.025817 4.417290
v -4.417290 5.025817 1.829702
v -4.417290 5.025817 -1.829702
v -1.829700 5.025817 -4.417290
v 1.829700 5.025817 -4.417290
v 2.445284 7.801283 -1.012871
v 2.445284 7.801283 1.012871
v 1.012871 7.801283 2.445284
v -1.012871 7.801283 2.445284
v -2.445284 7.801283 1.012871
v -2.445284 7.801283 -1.012871
v -1.012871 7.801283 -2.445284
v 1.012871 7.801283 -2.445284
v 3.438738 14.689242 -1.424373
v 3.438738 14.689242 1.424373
v 1.424372 14.689242 3.438740
v -1.424372 14.689242 3.438740
v -3.438738 14.689242 1.424373
v -3.438738 14.689242 -1.424373
v -1.424372 14.689242 -3.438740
v 1.424372 14.689242 -3.438740
v 3.361067 16.025928 -1.392201
v 3.361069 16.025928 1.392200
v 1.392200 16.025928 3.361069
v -1.392199 16.025928 3.361069
v -3.361067 16.025928 1.392201
v -3.361067 16.025928 -1.392201
v -1.392199 16.025928 -3.361069
v 1.392199 16.025928 -3.361069
v 2.943070 17.279114 -1.219060
v 2.943073 17.279114 1.219059
v 1.219061 17.279114 2.943071
v -1.219059 17.279114 2.943073
v -2.943070 17.279114 1.219060
v -2.943070 17.279114 -1.219060
v -1.219059 17.279114 -2.943073
v 1.219059 17.279114 -2.943073
v 1.410858 6.935077 -3.406110
v 1.532393 6.669801 -3.699520
v 1.478394 6.068657 -3.569157
v -1.478394 6.068657 -3.569157
v -3.569157 6.068657 -1.478393
v -3.569157 6.068657 1.478393
v -1.478394 6.068657 3.569157
v 1.478394 6.068657 3.569157
v 3.569157 6.068657 1.478393
v 3.569157 6.068657 -1.478393
v -1.410858 6.935077 -3.406110
v -1.532393 6.669801 -3.699520
v -3.406111 6.935077 -1.410857
v -3.699520 6.669801 -1.532391
v -3.406111 6.935077 1.410857
v -3.699520 6.669801 1.532391
v -1.410858 6.935077 3.406110
v -1.532393 6.669801 3.699520
v 1.410858 6.935077 3.406110
v 1.532393 6.669801 3.699520
v 3.406111 6.935077 1.410857
v 3.699520 6.669801 1.532391
v 3.699520 6.669801 -1.532391
v 3.406111 6.935077 -1.410857
v 2.043642 0.741907 -4.933789
v -2.043642 0.741907 -4.933789
v -4.933790 0.741907 -2.043642
v -4.933790 0.741907 2.043642
v -2.043642 0.741907 4.933789
v 2.043642 0.741907 4.933789
v 4.933790 0.741907 2.043642
v 4.933790 0.741907 -2.043642
v 3.074074 12.546283 -1.273322
v 3.074074 12.546283 1.273322
v 1.273323 12.546283 3.074071
v -1.273323 12.546283 3.074071
v -3.074074 12.546283 1.273322
v -3.074074 12.546283 -1.273322
v -1.273323 12.546283 -3.074071
v 1.273323 12.546283 -3.074071
v 1.227589 13.659742 -2.963660
v -1.227589 13.659742 -2.963660
v -2.963659 13.659742 -1.227588
v -2.963659 13.659742 1.227588
v -1.227589 13.659742 2.963660
v 1.227589 13.659742 2.963660
v 2.963659 13.659742 1.227588
v 2.963659 13.659742 -1.227588
v 0.000000 -0.000000 -3.302284
v -3.302286 -0.000000 0.000000
v 0.000000 -0.000000 3.302284
v 3.302286 -0.000000 0.000000
v 4.962366 3.128918 -2.055476
v 4.962366 3.128918 2.055476
v 2.055477 3.128918 4.962364
v -2.055477 3.128918 4.962364
v -4.962366 3.128918 2.055476
v -4.962366 3.128918 -2.055476
v -2.055477 3.128918 -4.962364
v 2.055477 3.128918 -4.962364
v 2.009578 1.590416 -4.851552
v -2.009578 1.590416 -4.851552
v -4.851554 1.590416 -2.009576
v -4.851554 1.590416 2.009576
v -2.009578 1.590416 4.851552
v 2.009578 1.590416 4.851552
v 4.851554 1.590416 2.009576
v 4.851554 1.590416 -2.009576
v 3.394763 11.841155 -1.406156
v 3.394763 11.841155 1.406156
v 1.406157 11.841155 3.394761
v -1.406157 11.841155 3.394761
v -3.394763 11.841155 1.406156
v -3.394763 11.841155 -1.406156
v -1.406157 11.841155 -3.394761
v 1.406157 11.841155 -3.394761
v 2.228942 18.140684 -0.923258
v 2.228943 18.140684 0.923257
v 0.923259 18.140684 2.228942
v -0.923258 18.140684 2.228944
v -2.228942 18.140684 0.923258
v -2.228942 18.140684 -0.923258
v -0.923258 18.140684 -2.228944
v 0.923258 18.140684 -2.228944
vt 0.563932 0.711717
vt 0.169573 0.323975
vt 0.522132 0.723036
vt 0.124441 0.308226
vt 0.480209 0.712184
vt 0.084093 0.285915
vt 0.491072 0.126099
vt 0.468384 0.670580
vt 0.513420 0.166425
vt 0.046906 0.655949
vt 0.529214 0.211542
vt 0.058231 0.697746
vt 0.513432 0.256661
vt 0.047388 0.739672
vt 0.491091 0.296993
vt 0.254988 0.285770
vt 0.005786 0.751506
vt 0.214678 0.308148
vt 0.149852 0.149852
vt 0.521835 0.669687
vt 0.004883 0.698055
vt 0.965181 0.727437
vt 0.965743 0.846622
vt 0.946543 0.483894
vt 0.967610 0.966972
vt 0.948432 0.363609
vt 0.948913 0.244418
vt 0.948320 0.125233
vt 0.967611 0.487961
vt 0.946424 0.004883
vt 0.965692 0.608250
vt 0.296596 0.214821
vt 0.837153 0.250483
vt 0.326981 0.334242
vt 0.827809 0.374798
vt 0.410263 0.424646
vt 0.510620 0.004883
vt 0.700229 0.004883
vt 0.800521 0.495842
vt 0.427391 0.095337
vt 0.727501 0.126148
vt 0.397076 0.214775
vt 0.736684 0.250484
vt 0.427414 0.334209
vt 0.727334 0.374798
vt 0.510658 0.424647
vt 0.410057 0.004883
vt 0.800689 0.004883
vt 0.700041 0.495842
vt 0.326866 0.095369
vt 0.827965 0.126144
vt 0.358180 0.214790
vt 0.896043 0.187787
vt 0.381081 0.304851
vt 0.891708 0.096050
vt 0.444012 0.372938
vt 0.878563 0.004883
vt 0.487378 0.762379
vt 0.544399 0.056572
vt 0.481508 0.124696
vt 0.396210 0.749252
vt 0.458659 0.214770
vt 0.304473 0.744926
vt 0.481525 0.304839
vt 0.212736 0.749252
vt 0.544430 0.372952
vt 0.121568 0.762394
vt 0.878602 0.370693
vt 0.443859 0.056559
vt 0.380993 0.124708
vt 0.891722 0.279524
vt 0.317387 0.411416
vt 0.097853 0.730594
vt 0.249304 0.421480
vt 0.070748 0.663960
vt 0.186394 0.454170
vt 0.403558 0.527874
vt 0.449026 0.657192
vt 0.004883 0.634983
vt 0.466457 0.560585
vt 0.478101 0.723013
vt 0.534536 0.570670
vt 0.544776 0.750017
vt 0.602619 0.560604
vt 0.611441 0.722986
vt 0.665526 0.527912
vt 0.448361 0.454220
vt 0.005133 0.826447
vt 0.640491 0.657154
vt 0.385464 0.421507
vt 0.070923 0.797298
vt 0.317374 0.473984
vt 0.268455 0.480890
vt 0.224198 0.500868
vt 0.441378 0.481190
vt 0.485628 0.501181
vt 0.534545 0.508103
vt 0.583464 0.501193
vt 0.627719 0.481215
vt 0.410539 0.500904
vt 0.366290 0.480909
vt 0.262167 0.630916
vt 0.185701 0.641834
vt 0.113165 0.674408
vt 0.851818 0.703287
vt 0.884491 0.630890
vt 0.895335 0.554404
vt 0.884418 0.477938
vt 0.851845 0.405401
vt 0.411050 0.674431
vt 0.338653 0.641758
vt 0.533153 0.665598
vt 0.169664 0.430667
vt 0.445169 0.650431
vt 0.259464 0.412071
vt 0.367905 0.608599
vt 0.334332 0.364510
vt 0.569908 0.376263
vt 0.755549 0.818562
vt 0.713904 0.741663
vt 0.617397 0.301350
vt 0.698513 0.653801
vt 0.635906 0.211530
vt 0.713688 0.565819
vt 0.617376 0.121714
vt 0.755527 0.488556
vt 0.569872 0.046814
vt 0.004883 0.364792
vt 0.697910 0.608547
vt 0.621014 0.650198
vt 0.079830 0.412224
vt 0.169628 0.388719
vt 0.243694 0.373161
vt 0.307446 0.330139
vt 0.535509 0.349407
vt 0.578472 0.285616
vt 0.593958 0.211534
vt 0.578455 0.137457
vt 0.535479 0.073673
vt 0.031712 0.330372
vt 0.095535 0.373287
vt 0.532992 0.631540
vt 0.609676 0.618178
vt 0.784535 0.508080
vt 0.678684 0.579665
vt 0.745836 0.576931
vt 0.732570 0.653643
vt 0.745926 0.730330
vt 0.387424 0.579588
vt 0.784432 0.799339
vt 0.456280 0.618281
vt 0.120646 0.730564
vt 0.857648 0.187787
vt 0.087306 0.813145
vt 0.853480 0.275908
vt 0.005878 0.849224
vt 0.841166 0.364090
vt 0.128182 0.799828
vt 0.663269 0.657864
vt 0.627311 0.739347
vt 0.216352 0.787497
vt 0.544781 0.772809
vt 0.304471 0.783321
vt 0.462237 0.739378
vt 0.392591 0.787493
vt 0.426247 0.657909
vt 0.480773 0.799812
vt 0.841128 0.011497
vt 0.005569 0.612202
vt 0.087090 0.648071
vt 0.853466 0.099669
vt 0.939759 0.727451
vt 0.940304 0.608036
vt 0.941729 0.488655
vt 0.972269 0.005676
vt 0.973705 0.124985
vt 0.974335 0.244397
vt 0.973820 0.363811
vt 0.972426 0.483192
vt 0.941764 0.966171
vt 0.940358 0.846867
vt 0.065582 0.538663
vt 0.317360 0.549166
vt 0.082699 0.563836
vt 0.347254 0.553263
vt 0.112603 0.569533
vt 0.375526 0.564976
vt 0.592728 0.417130
vt 0.137777 0.552415
vt 0.564451 0.428834
vt 0.143474 0.522511
vt 0.534555 0.432920
vt 0.126356 0.497337
vt 0.504660 0.428825
vt 0.096452 0.491641
vt 0.476387 0.417112
vt 0.259186 0.564955
vt 0.071278 0.508758
vt 0.287462 0.553251
vt 0.532993 0.598644
vt 0.262146 0.668925
vt 0.533026 0.587796
vt 0.196397 0.678106
vt 0.471128 0.577268
vt 0.467388 0.587434
vt 0.138157 0.704575
vt 0.417782 0.546719
vt 0.817394 0.769192
vt 0.821682 0.678188
vt 0.809435 0.776676
vt 0.410236 0.554638
vt 0.848219 0.620117
vt 0.786951 0.715614
vt 0.776765 0.719284
vt 0.857327 0.554383
vt 0.776315 0.653681
vt 0.765467 0.653647
vt 0.848146 0.488634
vt 0.786848 0.591784
vt 0.776682 0.588043
vt 0.821682 0.430393
vt 0.817402 0.538441
vt 0.648533 0.546705
vt 0.385952 0.704567
vt 0.656021 0.554665
vt 0.809484 0.530891
vt 0.327881 0.678030
vt 0.594957 0.577154
vt 0.598629 0.587339
vt 0.273602 0.068600
vt 0.928643 0.727459
vt 0.929195 0.607952
vt 0.179903 0.004894
vt 0.930577 0.489639
vt 0.068600 0.026100
vt 0.983418 0.006653
vt 0.984814 0.124882
vt 0.004894 0.119802
vt 0.985451 0.244387
vt 0.026100 0.231104
vt 0.984929 0.363895
vt 0.119802 0.294811
vt 0.983577 0.482208
vt 0.231104 0.273602
vt 0.930615 0.965195
vt 0.294811 0.179903
vt 0.929250 0.846962
vt 0.774635 0.250411
vt 0.992534 0.727442
vt 0.766140 0.135345
vt 0.993015 0.608532
vt 0.740664 0.023430
vt 0.995117 0.491287
vt 0.918919 0.008194
vt 0.640171 0.477531
vt 0.665551 0.365479
vt 0.920998 0.125511
vt 0.674165 0.250410
vt 0.921560 0.244420
vt 0.665675 0.135342
vt 0.921108 0.363331
vt 0.640203 0.023430
vt 0.919037 0.480576
vt 0.995115 0.963669
vt 0.740650 0.477531
vt 0.766026 0.365479
vt 0.993066 0.846352
vt 0.262077 0.603741
vt 0.004893 0.551247
vt 0.019466 0.474743
vt 0.178212 0.615812
vt 0.083866 0.430952
vt 0.102121 0.648804
vt 0.877460 0.714520
vt 0.160372 0.445524
vt 0.910576 0.638234
vt 0.204163 0.509926
vt 0.922511 0.554316
vt 0.189589 0.586430
vt 0.910440 0.470449
vt 0.125187 0.630222
vt 0.877453 0.394358
vt 0.422282 0.648788
vt 0.345997 0.615675
vt 0.048683 0.615648
vt 0.169599 0.354811
vt 0.230425 0.342093
vt 0.281609 0.304790
vt 0.510138 0.323597
vt 0.547389 0.272375
vt 0.560050 0.211538
vt 0.547376 0.150703
vt 0.510113 0.099491
vt 0.057505 0.304981
vt 0.108752 0.342196
vt 0.496056 0.695949
vt 0.030849 0.671979
vt 0.031149 0.723829
vt 0.547907 0.695660
vt 0.336037 0.268367
vt 0.387199 0.362531
vt 0.487595 0.067012
vt 0.436485 0.161207
vt 0.436495 0.268337
vt 0.487621 0.362523
vt 0.387058 0.067021
vt 0.335985 0.161236
vt 0.287323 0.441190
vt 0.229817 0.458742
vt 0.446983 0.523315
vt 0.504483 0.540887
vt 0.564597 0.540895
vt 0.622102 0.523340
vt 0.404936 0.458775
vt 0.347437 0.441201
vt 0.491389 0.644137
vt 0.412861 0.616056
vt 0.748143 0.773735
vt 0.720048 0.695309
vt 0.719977 0.612039
vt 0.748065 0.533512
vt 0.653084 0.615957
vt 0.574659 0.644059
vt 0.211527 0.405236
vt 0.288322 0.372356
vt 0.577708 0.330246
vt 0.610516 0.253418
vt 0.610506 0.169647
vt 0.577681 0.092827
vt 0.050906 0.372555
vt 0.127756 0.405307
vt 0.203879 0.367234
vt 0.267241 0.339581
vt 0.544911 0.309193
vt 0.572506 0.245807
vt 0.572499 0.177267
vt 0.544889 0.113884
vt 0.071932 0.339745
vt 0.135340 0.367292
vt 0.103804 0.771785
vt 0.865355 0.232311
vt 0.883111 0.233148
vt 0.874614 0.323421
vt 0.168839 0.766365
vt 0.259115 0.757862
vt 0.349833 0.757860
vt 0.440109 0.766361
vt 0.874593 0.052155
vt 0.883104 0.142429
vt 0.046522 0.831013
vt 0.856888 0.320976
vt 0.645118 0.698536
vt 0.171292 0.784092
vt 0.585976 0.755907
vt 0.259956 0.775617
vt 0.503578 0.755922
vt 0.348996 0.775616
vt 0.444414 0.698574
vt 0.437661 0.784088
vt 0.046259 0.630310
vt 0.856869 0.054607
vt 0.865349 0.143271
vt 0.103696 0.689387
vt 0.951976 0.667789
vt 0.953127 0.548386
vt 0.960843 0.065338
vt 0.962076 0.184759
vt 0.962133 0.304064
vt 0.961012 0.423470
vt 0.953205 0.906517
vt 0.952003 0.787092
vt 0.225509 0.647208
vt 0.154760 0.667625
vt 0.858681 0.661801
vt 0.879083 0.591080
vt 0.879045 0.517746
vt 0.858627 0.446997
vt 0.369565 0.667568
vt 0.298843 0.647168
vt 0.568851 0.610608
vt 0.636631 0.586524
vt 0.777526 0.550053
vt 0.753452 0.617763
vt 0.753500 0.689504
vt 0.777577 0.757286
vt 0.429398 0.586594
vt 0.497109 0.610662
vt 0.169393 0.055592
vt 0.055592 0.130311
vt 0.130311 0.244114
vt 0.244114 0.169393
vt 0.806194 0.310604
vt 0.788319 0.429764
vt 0.687985 0.071022
vt 0.705788 0.190187
vt 0.705722 0.310604
vt 0.687842 0.429764
vt 0.788448 0.071022
vt 0.806255 0.190187
vt 0.977432 0.667906
vt 0.978407 0.548836
vt 0.935585 0.065815
vt 0.936621 0.184883
vt 0.936677 0.303953
vt 0.935732 0.423023
vt 0.978463 0.906044
vt 0.977458 0.786974
vt 0.221988 0.622622
vt 0.144683 0.645332
vt 0.881062 0.671883
vt 0.903685 0.594535
vt 0.903631 0.514225
vt 0.880920 0.436920
vt 0.379646 0.645187
vt 0.302297 0.622566
vt 0.196947 0.334468
vt 0.246889 0.312546
vt 0.517859 0.288868
vt 0.539734 0.238905
vt 0.539727 0.184175
vt 0.517842 0.134216
vt 0.092237 0.312677
vt 0.142218 0.334515
vt 0.521994 0.697947
vt 0.498045 0.719037
vt 0.101044 0.296225
vt 0.472958 0.694510
vt 0.501398 0.143040
vt 0.493517 0.670012
vt 0.004887 0.669734
vt 0.029148 0.648899
vt 0.522520 0.191664
vt 0.053961 0.673706
vt 0.522525 0.231421
vt 0.033142 0.697892
vt 0.054237 0.721834
vt 0.501413 0.280050
vt 0.029714 0.746926
vt 0.238056 0.296108
vt 0.005214 0.726374
vt 0.550156 0.669697
vt 0.570986 0.693962
vt 0.189446 0.317266
vt 0.546173 0.718769
vt 0.149689 0.317300
vt 0.304522 0.276382
vt 0.834642 0.312788
vt 0.328936 0.214805
vt 0.364144 0.261216
vt 0.894536 0.141887
vt 0.355396 0.318812
vt 0.363327 0.384519
vt 0.816046 0.435986
vt 0.408440 0.342793
vt 0.885983 0.050476
vt 0.428486 0.397789
vt 0.528858 0.031731
vt 0.463703 0.045039
vt 0.715849 0.064873
vt 0.508842 0.086738
vt 0.441784 0.754971
vt 0.455814 0.110750
vt 0.404964 0.153210
vt 0.734248 0.188139
vt 0.464596 0.168341
vt 0.350371 0.746428
vt 0.429415 0.214773
vt 0.404976 0.276340
vt 0.734170 0.312790
vt 0.464605 0.261198
vt 0.258574 0.746428
vt 0.455837 0.318791
vt 0.463737 0.384500
vt 0.715569 0.435986
vt 0.508869 0.342793
vt 0.167160 0.754978
vt 0.528893 0.397795
vt 0.428307 0.031723
vt 0.363159 0.045057
vt 0.816311 0.064873
vt 0.408314 0.086739
vt 0.886005 0.325100
vt 0.355297 0.110771
vt 0.304461 0.153250
vt 0.834716 0.188137
vt 0.364100 0.168359
vt 0.894543 0.233685
vt 0.283175 0.414443
vt 0.090519 0.694747
vt 0.317381 0.439043
vt 0.292605 0.475631
vt 0.257843 0.447710
vt 0.216942 0.434841
vt 0.040528 0.643330
vt 0.245440 0.489376
vt 0.204086 0.474674
vt 0.421257 0.507374
vt 0.434101 0.547211
vt 0.457425 0.692823
vt 0.462616 0.492687
vt 0.475005 0.534357
vt 0.500326 0.567633
vt 0.508918 0.742737
vt 0.509777 0.506448
vt 0.534540 0.543044
vt 0.568748 0.567642
vt 0.580631 0.742723
vt 0.559314 0.506455
vt 0.594077 0.534374
vt 0.634979 0.547241
vt 0.632105 0.692791
vt 0.606478 0.492706
vt 0.647833 0.507404
vt 0.430661 0.474716
vt 0.417820 0.434879
vt 0.040756 0.818008
vt 0.389302 0.489403
vt 0.376915 0.447733
vt 0.351597 0.414455
vt 0.090613 0.766459
vt 0.342142 0.475640
vt 0.494132 0.627934
vt 0.533043 0.647791
vt 0.488484 0.661720
vt 0.215740 0.426364
vt 0.450947 0.633588
vt 0.420673 0.601724
vt 0.404613 0.631911
vt 0.299482 0.390720
vt 0.377567 0.593185
vt 0.770825 0.809143
vt 0.762455 0.765945
vt 0.732478 0.782009
vt 0.596084 0.341385
vt 0.730649 0.735722
vt 0.736235 0.692492
vt 0.702505 0.698418
vt 0.631647 0.257611
vt 0.716319 0.653692
vt 0.736180 0.614783
vt 0.702394 0.609133
vt 0.631638 0.165449
vt 0.730530 0.571596
vt 0.762397 0.541328
vt 0.732212 0.525265
vt 0.596055 0.081680
vt 0.770940 0.498222
vt 0.688488 0.593272
vt 0.645294 0.601645
vt 0.661358 0.631621
vt 0.039778 0.390942
vt 0.615070 0.633454
vt 0.571840 0.627872
vt 0.577769 0.661602
vt 0.123579 0.426441
vt 0.169645 0.409692
vt 0.207371 0.384416
vt 0.251576 0.392593
vt 0.277040 0.354275
vt 0.321369 0.347286
vt 0.552672 0.363316
vt 0.559616 0.318981
vt 0.597912 0.293478
vt 0.589691 0.249281
vt 0.614931 0.211532
vt 0.589683 0.173789
vt 0.597894 0.129589
vt 0.559592 0.104095
vt 0.552638 0.059761
vt 0.017817 0.347546
vt 0.062158 0.354458
vt 0.087687 0.392733
vt 0.131878 0.384480
vt 0.169613 0.371195
vt 0.200562 0.351321
vt 0.236948 0.357038
vt 0.257639 0.326271
vt 0.294640 0.316521
vt 0.521879 0.336617
vt 0.531594 0.299604
vt 0.562343 0.278885
vt 0.556590 0.242505
vt 0.576434 0.211536
vt 0.556583 0.180573
vt 0.562328 0.144192
vt 0.531574 0.123478
vt 0.521852 0.086472
vt 0.044495 0.316730
vt 0.081511 0.326420
vt 0.102254 0.357153
vt 0.138630 0.351374
vt 0.112107 0.730575
vt 0.111691 0.774969
vt 0.856835 0.231908
vt 0.081170 0.807209
vt 0.866166 0.187790
vt 0.861962 0.276711
vt 0.880090 0.278421
vt 0.884361 0.187790
vt 0.867444 0.367481
vt 0.124785 0.773552
vt 0.213844 0.760885
vt 0.304476 0.756607
vt 0.395107 0.760883
vt 0.484165 0.773537
vt 0.867407 0.008099
vt 0.880078 0.097158
vt 0.049968 0.838791
vt 0.848438 0.319824
vt 0.005634 0.840691
vt 0.654736 0.657635
vt 0.849550 0.365585
vt 0.126686 0.791443
vt 0.652902 0.701969
vt 0.172443 0.792542
vt 0.621366 0.733219
vt 0.215554 0.779013
vt 0.589172 0.763790
vt 0.260357 0.784137
vt 0.544779 0.764272
vt 0.304475 0.774802
vt 0.500384 0.763806
vt 0.348592 0.784136
vt 0.468179 0.733248
vt 0.393395 0.779011
vt 0.436632 0.702011
vt 0.436509 0.792538
vt 0.434782 0.657677
vt 0.005346 0.620739
vt 0.482269 0.791428
vt 0.849516 0.010002
vt 0.049685 0.622520
vt 0.848419 0.055759
vt 0.080969 0.654022
vt 0.861950 0.098869
vt 0.856829 0.143673
vt 0.111576 0.686182
vt 0.940007 0.787153
vt 0.939980 0.667742
vt 0.941181 0.548332
vt 0.972790 0.065285
vt 0.974072 0.184694
vt 0.974130 0.304106
vt 0.972958 0.423515
vt 0.941259 0.906563
vt 0.952383 0.608135
vt 0.965361 0.667849
vt 0.951853 0.727447
vt 0.953984 0.487984
vt 0.960018 0.005013
vt 0.966409 0.548542
vt 0.961627 0.125095
vt 0.947581 0.065533
vt 0.962241 0.244405
vt 0.948691 0.184826
vt 0.961741 0.363716
vt 0.948748 0.304007
vt 0.960170 0.483871
vt 0.954015 0.966843
vt 0.947730 0.423313
vt 0.952436 0.846760
vt 0.966468 0.906322
vt 0.965388 0.787029
vt 0.071739 0.552882
vt 0.332417 0.550344
vt 0.097108 0.569537
vt 0.361685 0.558357
vt 0.126822 0.563375
vt 0.578884 0.423744
vt 0.143478 0.538007
vt 0.549614 0.431748
vt 0.137316 0.508291
vt 0.519499 0.431744
vt 0.111947 0.491637
vt 0.490231 0.423732
vt 0.082232 0.497798
vt 0.273031 0.558341
vt 0.302301 0.550338
vt 0.065578 0.523167
vt 0.228773 0.670422
vt 0.501598 0.585267
vt 0.499710 0.595864
vt 0.223608 0.633878
vt 0.262175 0.644508
vt 0.189480 0.654810
vt 0.149130 0.655594
vt 0.121695 0.685829
vt 0.840393 0.694731
vt 0.870712 0.667478
vt 0.871508 0.627110
vt 0.892417 0.592974
vt 0.881743 0.554413
vt 0.892374 0.515845
vt 0.871443 0.481717
vt 0.870659 0.441367
vt 0.840424 0.413931
vt 0.402494 0.685856
vt 0.375241 0.655537
vt 0.334873 0.654741
vt 0.300737 0.633834
vt 0.566301 0.595806
vt 0.603771 0.601612
vt 0.532975 0.613875
vt 0.628990 0.573611
vt 0.666775 0.565895
vt 0.798286 0.520061
vt 0.790423 0.557777
vt 0.762416 0.582842
vt 0.768250 0.620364
vt 0.750236 0.653627
vt 0.768302 0.686955
vt 0.762492 0.724426
vt 0.790491 0.749645
vt 0.798203 0.787434
vt 0.399406 0.565837
vt 0.437122 0.573695
vt 0.462189 0.601701
vt 0.165224 0.688633
vt 0.442678 0.564452
vt 0.837696 0.651222
vt 0.799767 0.744164
vt 0.855877 0.587724
vt 0.778912 0.685145
vt 0.855830 0.521009
vt 0.778847 0.622253
vt 0.837620 0.457460
vt 0.799666 0.563335
vt 0.358986 0.688553
vt 0.623507 0.564335
vt 0.564490 0.585196
vt 0.295487 0.670374
vt 0.211634 0.109287
vt 0.109287 0.088070
vt 0.088070 0.190416
vt 0.190416 0.211634
vt 0.294823 0.122229
vt 0.929041 0.787212
vt 0.929014 0.667704
vt 0.232828 0.027809
vt 0.930212 0.548306
vt 0.122229 0.004883
vt 0.983759 0.065247
vt 0.027809 0.066875
vt 0.985038 0.184633
vt 0.004883 0.177475
vt 0.985095 0.304144
vt 0.066875 0.271893
vt 0.983927 0.423542
vt 0.177475 0.294823
vt 0.930289 0.906597
vt 0.271893 0.232828
vt 0.772732 0.192732
vt 0.992291 0.667982
vt 0.799656 0.370522
vt 0.808661 0.250406
vt 0.772903 0.488594
vt 0.672455 0.012283
vt 0.699311 0.130283
vt 0.708190 0.250407
vt 0.699182 0.370522
vt 0.672424 0.488586
vt 0.772915 0.012283
vt 0.799775 0.130283
vt 0.977839 0.608368
vt 0.977346 0.727437
vt 0.979949 0.489105
vt 0.934088 0.006027
vt 0.936173 0.125355
vt 0.936748 0.244421
vt 0.936285 0.363487
vt 0.934206 0.482750
vt 0.979946 0.965836
vt 0.977890 0.846504
vt 0.755705 0.078671
vt 0.993275 0.549240
vt 0.655099 0.422230
vt 0.920719 0.066204
vt 0.672193 0.308153
vt 0.921761 0.184950
vt 0.672264 0.192730
vt 0.921818 0.303881
vt 0.655242 0.078667
vt 0.920864 0.422619
vt 0.755576 0.422230
vt 0.993329 0.905655
vt 0.992318 0.786913
vt 0.772665 0.308153
vt 0.262122 0.619685
vt 0.182580 0.631104
vt 0.107920 0.663929
vt 0.862309 0.708723
vt 0.895260 0.633932
vt 0.906566 0.554360
vt 0.895149 0.474818
vt 0.862324 0.400157
vt 0.416486 0.663940
vt 0.341694 0.630991
vt 0.304361 0.607430
vt 0.020647 0.587624
vt 0.004883 0.511604
vt 0.219805 0.607502
vt 0.047491 0.446705
vt 0.138881 0.631126
vt 0.123508 0.430942
vt 0.895279 0.677649
vt 0.188410 0.473549
vt 0.918820 0.596600
vt 0.204173 0.549568
vt 0.918751 0.512042
vt 0.161566 0.614468
vt 0.895126 0.431118
vt 0.085545 0.630231
vt 0.385412 0.630970
vt 0.169584 0.337304
vt 0.223208 0.326279
vt 0.266897 0.293465
vt 0.498796 0.308895
vt 0.531570 0.265175
vt 0.542544 0.211540
vt 0.531558 0.157907
vt 0.498774 0.114197
vt 0.072197 0.293629
vt 0.115941 0.326370
vt 0.575293 0.669983
vt 0.005169 0.644596
vn 0.000000 1.000000 0.000000
vn 0.000000 0.994345 -0.106200
vn -0.103007 0.989333 -0.103007
vn -0.106198 0.994345 0.000000
vn -0.000000 0.945135 -0.326680
vn -0.131255 0.941265 -0.311114
vn -0.290986 0.911403 -0.290985
vn -0.311112 0.941266 -0.131253
vn -0.326676 0.945136 0.000001
vn -0.103007 0.989333 0.103007
vn 0.000000 0.994345 0.106199
vn -0.311112 0.941266 0.131253
vn -0.290986 0.911403 0.290984
vn -0.131254 0.941266 0.311113
vn 0.000000 0.945135 0.326679
vn 0.103009 0.989332 0.103009
vn 0.106202 0.994345 -0.000000
vn 0.131255 0.941265 0.311115
vn 0.290989 0.911401 0.290988
vn 0.311119 0.941263 0.131256
vn 0.326684 0.945134 -0.000000
vn 0.103010 0.989332 -0.103010
vn 0.311119 0.941263 -0.131257
vn 0.290989 0.911401 -0.290989
vn 0.131256 0.941264 -0.311116
vn 0.826472 0.562978 -0.000000
vn 0.764317 0.561774 -0.316591
vn 0.722793 0.622844 -0.299391
vn 0.781769 0.623568 -0.000000
vn 0.584404 0.562978 -0.584404
vn 0.552794 0.623568 -0.552795
vn 0.524571 0.670559 -0.524571
vn 0.686658 0.669032 -0.284423
vn 0.741855 0.670560 0.000000
vn 0.584404 0.562978 0.584404
vn 0.764317 0.561774 0.316591
vn 0.722793 0.622844 0.299391
vn 0.552794 0.623568 0.552795
vn 0.686658 0.669032 0.284423
vn 0.524571 0.670560 0.524571
vn 0.000000 0.562978 0.826472
vn 0.316590 0.561774 0.764317
vn 0.299391 0.622844 0.722794
vn -0.000000 0.623567 0.781770
vn 0.284423 0.669032 0.686658
vn -0.000000 0.670560 0.741856
vn -0.584404 0.562978 0.584404
vn -0.316590 0.561774 0.764317
vn -0.299391 0.622844 0.722794
vn -0.552794 0.623568 0.552795
vn -0.284423 0.669032 0.686658
vn -0.524571 0.670559 0.524571
vn -0.826472 0.562978 0.000000
vn -0.764317 0.561774 0.316591
vn -0.722793 0.622844 0.299391
vn -0.781769 0.623568 0.000000
vn -0.686658 0.669032 0.284423
vn -0.741855 0.670560 -0.000000
vn -0.584404 0.562978 -0.584404
vn -0.764317 0.561774 -0.316591
vn -0.722793 0.622844 -0.299391
vn -0.552794 0.623568 -0.552795
vn -0.686658 0.669032 -0.284423
vn -0.524571 0.670560 -0.524571
vn 0.000000 0.562978 -0.826472
vn -0.316590 0.561774 -0.764317
vn -0.299391 0.622844 -0.722794
vn 0.000000 0.623567 -0.781770
vn -0.284423 0.669032 -0.686658
vn 0.000000 0.670560 -0.741856
vn 0.316590 0.561774 -0.764317
vn 0.299391 0.622844 -0.722794
vn 0.284423 0.669032 -0.686658
vn 0.792635 0.609696 0.000000
vn 0.733151 0.608497 -0.303680
vn 0.778095 0.539160 -0.322296
vn 0.841177 0.540760 0.000000
vn 0.560478 0.609697 -0.560477
vn 0.594802 0.540760 -0.594802
vn 0.659288 0.361496 -0.659288
vn 0.861862 0.360208 -0.356994
vn 0.932374 0.361496 0.000000
vn 0.560478 0.609697 0.560477
vn 0.733151 0.608497 0.303680
vn 0.778095 0.539160 0.322296
vn 0.594802 0.540760 0.594802
vn 0.861862 0.360208 0.356994
vn 0.659288 0.361496 0.659287
vn -0.000000 0.609697 0.792635
vn 0.303681 0.608497 0.733150
vn 0.322297 0.539160 0.778094
vn 0.000000 0.540760 0.841177
vn 0.356995 0.360208 0.861862
vn -0.000000 0.361496 0.932374
vn -0.560478 0.609697 0.560477
vn -0.303681 0.608497 0.733150
vn -0.322297 0.539160 0.778094
vn -0.594802 0.540760 0.594801
vn -0.356995 0.360208 0.861862
vn -0.659288 0.361496 0.659288
vn -0.792635 0.609696 -0.000000
vn -0.733151 0.608497 0.303680
vn -0.778095 0.539160 0.322296
vn -0.841177 0.540760 -0.000000
vn -0.861862 0.360208 0.356994
vn -0.932374 0.361496 -0.000000
vn -0.560478 0.609697 -0.560477
vn -0.733151 0.608497 -0.303680
vn -0.778095 0.539160 -0.322296
vn -0.594802 0.540760 -0.594802
vn -0.861862 0.360208 -0.356994
vn -0.659288 0.361496 -0.659287
vn 0.000000 0.609697 -0.792635
vn -0.303681 0.608497 -0.733150
vn -0.322297 0.539160 -0.778094
vn 0.000000 0.540760 -0.841177
vn -0.356995 0.360208 -0.861862
vn 0.000000 0.361496 -0.932374
vn 0.303681 0.608497 -0.733150
vn 0.322297 0.539160 -0.778094
vn 0.356995 0.360208 -0.861862
vn 0.900502 -0.434852 -0.000000
vn 0.832162 -0.434389 -0.344692
vn 0.912608 -0.155730 -0.378014
vn 0.987762 -0.155970 0.000000
vn 0.636751 -0.434851 -0.636751
vn 0.698453 -0.155970 -0.698453
vn 0.705752 0.061877 -0.705752
vn 0.922117 0.061732 -0.381954
vn 0.998084 0.061876 -0.000000
vn 0.636751 -0.434852 0.636751
vn 0.832162 -0.434389 0.344692
vn 0.912608 -0.155730 0.378014
vn 0.698453 -0.155970 0.698453
vn 0.922118 0.061732 0.381954
vn 0.705752 0.061876 0.705752
vn 0.000000 -0.434852 0.900502
vn 0.344693 -0.434390 0.832161
vn 0.378015 -0.155730 0.912608
vn 0.000000 -0.155970 0.987762
vn 0.381954 0.061732 0.922117
vn 0.000000 0.061876 0.998084
vn -0.636751 -0.434852 0.636751
vn -0.344692 -0.434390 0.832161
vn -0.378015 -0.155730 0.912608
vn -0.698453 -0.155970 0.698453
vn -0.381954 0.061733 0.922117
vn -0.705752 0.061877 0.705752
vn -0.900502 -0.434852 0.000000
vn -0.832162 -0.434389 0.344692
vn -0.912608 -0.155730 0.378014
vn -0.987762 -0.155970 0.000000
vn -0.922117 0.061733 0.381954
vn -0.998084 0.061876 0.000000
vn -0.636751 -0.434852 -0.636751
vn -0.832162 -0.434389 -0.344692
vn -0.912608 -0.155730 -0.378015
vn -0.698453 -0.155970 -0.698453
vn -0.922117 0.061733 -0.381954
vn -0.705752 0.061877 -0.705752
vn -0.000000 -0.434852 -0.900502
vn -0.344693 -0.434390 -0.832161
vn -0.378015 -0.155730 -0.912608
vn -0.000000 -0.155970 -0.987762
vn -0.381954 0.061732 -0.922117
vn -0.000000 0.061876 -0.998084
vn 0.344692 -0.434390 -0.832161
vn 0.378015 -0.155730 -0.912608
vn 0.381954 0.061733 -0.922117
vn 0.905120 0.200491 -0.374914
vn 0.979599 0.200960 -0.000001
vn 0.692681 0.200961 -0.692681
vn 0.666414 0.334342 -0.666414
vn 0.870924 0.333695 -0.360749
vn 0.942452 0.334342 -0.000001
vn 0.905121 0.200490 0.374913
vn 0.692682 0.200960 0.692681
vn 0.870924 0.333694 0.360748
vn 0.666414 0.334342 0.666414
vn 0.374914 0.200491 0.905120
vn 0.000000 0.200961 0.979599
vn 0.360749 0.333695 0.870924
vn 0.000001 0.334343 0.942452
vn -0.374913 0.200491 0.905121
vn -0.692681 0.200961 0.692681
vn -0.360749 0.333695 0.870924
vn -0.666414 0.334342 0.666414
vn -0.905120 0.200491 0.374914
vn -0.979599 0.200961 0.000000
vn -0.870924 0.333695 0.360749
vn -0.942452 0.334342 0.000000
vn -0.905120 0.200491 -0.374913
vn -0.692681 0.200961 -0.692681
vn -0.870924 0.333695 -0.360749
vn -0.666414 0.334343 -0.666414
vn -0.374913 0.200491 -0.905121
vn -0.000000 0.200960 -0.979599
vn -0.360749 0.333695 -0.870924
vn -0.000000 0.334343 -0.942452
vn 0.374914 0.200491 -0.905121
vn 0.360749 0.333695 -0.870924
vn 0.798837 0.502365 -0.330890
vn 0.864241 0.503079 -0.000001
vn 0.611111 0.503078 -0.611111
vn 0.531845 0.659000 -0.531846
vn 0.695478 0.658271 -0.288078
vn 0.752142 0.659001 -0.000001
vn 0.798837 0.502366 0.330889
vn 0.611110 0.503079 0.611110
vn 0.695478 0.658272 0.288077
vn 0.531844 0.659002 0.531844
vn 0.330890 0.502365 0.798837
vn 0.000000 0.503079 0.864241
vn 0.288077 0.658272 0.695478
vn 0.000000 0.659001 0.752142
vn -0.330890 0.502366 0.798837
vn -0.611111 0.503079 0.611110
vn -0.288077 0.658271 0.695479
vn -0.531845 0.659001 0.531845
vn -0.798837 0.502365 0.330890
vn -0.864241 0.503079 0.000000
vn -0.695478 0.658272 0.288077
vn -0.752142 0.659001 0.000000
vn -0.798837 0.502365 -0.330890
vn -0.611111 0.503079 -0.611110
vn -0.695478 0.658272 -0.288077
vn -0.531845 0.659001 -0.531845
vn -0.330890 0.502366 -0.798837
vn 0.000000 0.503079 -0.864240
vn -0.288077 0.658272 -0.695478
vn 0.000000 0.659001 -0.752142
vn 0.330890 0.502365 -0.798837
vn 0.288077 0.658272 -0.695478
vn 0.180385 0.966914 -0.180385
vn 0.069666 0.995135 -0.069666
vn 0.038478 0.994932 -0.092895
vn 0.097910 0.966716 -0.236376
vn -0.061456 0.996216 0.061456
vn -0.033363 0.996193 0.080545
vn 0.000000 0.996216 0.086911
vn -0.000000 0.995135 -0.098524
vn 0.000000 0.966914 -0.255104
vn 0.704120 0.091808 -0.704121
vn 0.701534 -0.125301 -0.701534
vn 0.379681 -0.125017 -0.916631
vn 0.381076 0.091525 -0.920002
vn 0.688284 -0.229195 -0.688284
vn 0.372557 -0.228515 -0.899434
vn 0.000000 -0.125298 -0.992119
vn 0.000000 -0.229193 -0.973381
vn 0.000000 0.091810 -0.995777
vn 0.324046 0.531955 -0.782316
vn 0.598228 0.533149 -0.598227
vn 0.000000 0.533150 -0.846021
vn -0.324046 0.531955 -0.782316
vn -0.598228 0.533149 -0.598227
vn -0.782316 0.531955 -0.324046
vn -0.846021 0.533150 0.000000
vn -0.782316 0.531955 0.324046
vn -0.598228 0.533149 0.598227
vn -0.324046 0.531955 0.782316
vn -0.000000 0.533150 0.846021
vn 0.324046 0.531955 0.782316
vn 0.598228 0.533149 0.598227
vn 0.782316 0.531955 0.324046
vn 0.846021 0.533150 -0.000000
vn 0.782316 0.531955 -0.324046
vn -0.038478 0.994932 -0.092895
vn -0.097910 0.966716 -0.236376
vn 0.033363 0.996192 0.080545
vn 0.061456 0.996216 0.061456
vn -0.069666 0.995135 -0.069666
vn -0.180385 0.966914 -0.180385
vn -0.379681 -0.125017 -0.916631
vn -0.381076 0.091525 -0.920002
vn -0.372558 -0.228515 -0.899434
vn -0.701534 -0.125301 -0.701534
vn -0.688284 -0.229195 -0.688284
vn -0.704120 0.091808 -0.704121
vn -0.092894 0.994932 -0.038478
vn -0.236375 0.966716 -0.097910
vn 0.080546 0.996192 0.033363
vn 0.086911 0.996216 0.000000
vn -0.098522 0.995135 0.000000
vn -0.255102 0.966914 -0.000000
vn -0.916631 -0.125019 -0.379681
vn -0.920002 0.091522 -0.381077
vn -0.899434 -0.228516 -0.372557
vn -0.992119 -0.125301 0.000000
vn -0.973381 -0.229194 0.000000
vn -0.995777 0.091805 -0.000000
vn -0.092894 0.994932 0.038478
vn -0.236375 0.966716 0.097910
vn 0.080546 0.996192 -0.033363
vn 0.061456 0.996216 -0.061456
vn -0.069666 0.995135 0.069666
vn -0.180385 0.966914 0.180385
vn -0.916631 -0.125018 0.379681
vn -0.920002 0.091522 0.381077
vn -0.899434 -0.228516 0.372557
vn -0.701534 -0.125300 0.701534
vn -0.688284 -0.229195 0.688284
vn -0.704120 0.091809 0.704121
vn -0.038478 0.994932 0.092895
vn -0.097910 0.966716 0.236376
vn 0.033363 0.996192 -0.080545
vn 0.000000 0.996216 -0.086911
vn 0.000000 0.995135 0.098524
vn -0.000000 0.966914 0.255104
vn -0.379681 -0.125017 0.916632
vn -0.381076 0.091525 0.920002
vn -0.372558 -0.228515 0.899434
vn -0.000000 -0.125298 0.992119
vn -0.000000 -0.229193 0.973381
vn -0.000000 0.091810 0.995777
vn 0.038478 0.994932 0.092895
vn 0.097910 0.966716 0.236376
vn -0.033363 0.996192 -0.080545
vn -0.061456 0.996216 -0.061456
vn 0.069666 0.995135 0.069666
vn 0.180385 0.966914 0.180385
vn 0.379681 -0.125017 0.916631
vn 0.381076 0.091525 0.920002
vn 0.372558 -0.228515 0.899434
vn 0.701534 -0.125301 0.701534
vn 0.688284 -0.229195 0.688284
vn 0.704120 0.091808 0.704121
vn 0.092894 0.994932 0.038478
vn 0.236375 0.966716 0.097910
vn -0.080546 0.996192 -0.033363
vn -0.086911 0.996216 -0.000000
vn 0.098522 0.995135 -0.000000
vn 0.255102 0.966914 0.000000
vn 0.916631 -0.125019 0.379681
vn 0.920002 0.091522 0.381077
vn 0.899434 -0.228516 0.372557
vn 0.992119 -0.125301 -0.000000
vn 0.973381 -0.229194 -0.000000
vn 0.995777 0.091805 0.000000
vn 0.916631 -0.125019 -0.379681
vn 0.899434 -0.228516 -0.372557
vn 0.920002 0.091522 -0.381077
vn 0.092894 0.994932 -0.038478
vn -0.080546 0.996192 0.033363
vn 0.236375 0.966716 -0.097909
vn 0.662827 -0.348310 -0.662828
vn 0.866276 -0.347580 -0.358824
vn 0.840486 -0.415189 -0.348141
vn 0.642933 -0.416263 -0.642932
vn 0.937379 -0.348311 -0.000000
vn 0.909242 -0.416268 -0.000000
vn -0.000000 -0.348310 -0.937379
vn 0.358823 -0.347580 -0.866276
vn 0.348141 -0.415188 -0.840486
vn 0.000000 -0.416266 -0.909243
vn -0.662827 -0.348309 -0.662828
vn -0.358823 -0.347580 -0.866276
vn -0.348141 -0.415188 -0.840486
vn -0.642933 -0.416263 -0.642932
vn -0.937379 -0.348311 0.000000
vn -0.866276 -0.347580 -0.358824
vn -0.840486 -0.415189 -0.348141
vn -0.909242 -0.416268 0.000000
vn -0.662827 -0.348309 0.662828
vn -0.866276 -0.347580 0.358824
vn -0.840486 -0.415189 0.348141
vn -0.642933 -0.416263 0.642932
vn 0.000000 -0.348310 0.937379
vn -0.358823 -0.347580 0.866276
vn -0.348141 -0.415188 0.840486
vn 0.000000 -0.416266 0.909243
vn 0.662827 -0.348310 0.662828
vn 0.358823 -0.347580 0.866276
vn 0.348141 -0.415188 0.840486
vn 0.642933 -0.416263 0.642932
vn 0.866276 -0.347580 0.358824
vn 0.840486 -0.415188 0.348141
vn 0.375794 -0.188900 -0.907246
vn 0.694325 -0.189277 -0.694325
vn -0.000000 -0.189276 -0.981924
vn -0.000000 0.100485 -0.994939
vn 0.380749 0.100438 -0.919208
vn 0.703528 0.100488 -0.703528
vn -0.375794 -0.188900 -0.907246
vn -0.694325 -0.189276 -0.694325
vn -0.703528 0.100488 -0.703528
vn -0.380749 0.100438 -0.919208
vn -0.907246 -0.188900 -0.375794
vn -0.981924 -0.189275 0.000000
vn -0.994939 0.100485 -0.000000
vn -0.919208 0.100438 -0.380749
vn -0.907246 -0.188900 0.375794
vn -0.694325 -0.189277 0.694325
vn -0.703528 0.100488 0.703528
vn -0.919208 0.100438 0.380749
vn -0.375794 -0.188900 0.907246
vn 0.000000 -0.189276 0.981924
vn 0.000000 0.100485 0.994939
vn -0.380749 0.100438 0.919208
vn 0.375794 -0.188900 0.907246
vn 0.694325 -0.189276 0.694325
vn 0.703528 0.100488 0.703528
vn 0.380749 0.100438 0.919208
vn 0.907246 -0.188900 0.375794
vn 0.981924 -0.189276 0.000000
vn 0.994939 0.100485 0.000000
vn 0.919208 0.100438 0.380749
vn 0.907246 -0.188900 -0.375794
vn 0.919208 0.100438 -0.380749
vn 0.005820 -0.999884 -0.014051
vn 0.005820 -0.999884 -0.014051
vn 0.000000 -0.999885 -0.015162
vn 0.000000 -0.999885 -0.015162
vn 0.366153 0.290740 -0.883970
vn 0.676382 0.291575 -0.676381
vn 0.000000 0.291574 -0.956548
vn -0.366153 0.290740 -0.883970
vn -0.676382 0.291575 -0.676381
vn -0.883970 0.290740 -0.366152
vn -0.956548 0.291574 -0.000000
vn -0.883970 0.290740 0.366152
vn -0.676382 0.291575 0.676381
vn -0.366153 0.290740 0.883970
vn -0.000000 0.291574 0.956548
vn 0.366153 0.290740 0.883970
vn 0.676382 0.291575 0.676381
vn 0.883970 0.290740 0.366152
vn 0.956548 0.291574 0.000000
vn 0.883970 0.290740 -0.366152
vn -0.005820 -0.999884 -0.014051
vn -0.010720 -0.999885 -0.010721
vn -0.010720 -0.999885 -0.010721
vn -0.005820 -0.999884 -0.014051
vn -0.014050 -0.999884 -0.005820
vn -0.015161 -0.999885 -0.000000
vn -0.015161 -0.999885 -0.000000
vn -0.014050 -0.999884 -0.005820
vn -0.014050 -0.999884 0.005819
vn -0.010720 -0.999885 0.010721
vn -0.010720 -0.999885 0.010721
vn -0.014050 -0.999884 0.005819
vn -0.005820 -0.999884 0.014051
vn 0.000000 -0.999885 0.015162
vn 0.000000 -0.999885 0.015162
vn -0.005820 -0.999884 0.014051
vn 0.005820 -0.999884 0.014051
vn 0.010720 -0.999885 0.010721
vn 0.010720 -0.999885 0.010721
vn 0.005820 -0.999884 0.014051
vn 0.014050 -0.999884 0.005820
vn 0.015161 -0.999885 0.000000
vn 0.015161 -0.999885 0.000000
vn 0.014050 -0.999884 0.005820
vn 0.014050 -0.999884 -0.005819
vn 0.010721 -0.999885 -0.010721
vn 0.010721 -0.999885 -0.010721
vn 0.014050 -0.999884 -0.005819
vn 0.558085 0.796933 -0.231167
vn 0.426739 0.797363 -0.426740
vn 0.375283 0.847541 -0.375284
vn 0.491434 0.846792 -0.203560
vn 0.530731 0.847540 0.000000
vn 0.603501 0.797363 0.000000
vn 0.736419 -0.603856 -0.305034
vn 0.562985 -0.605059 -0.562985
vn 0.535718 -0.652697 -0.535717
vn 0.701052 -0.651309 -0.290384
vn 0.757620 -0.652696 -0.000000
vn 0.796183 -0.605055 -0.000000
vn 0.686333 0.727288 0.000000
vn 0.635138 0.726214 -0.263083
vn 0.485310 0.727288 -0.485311
vn 0.485311 0.727288 0.485311
vn 0.635138 0.726214 0.263083
vn 0.558086 0.796933 0.231167
vn 0.426739 0.797362 0.426740
vn 0.000000 0.727288 0.686332
vn 0.263083 0.726214 0.635138
vn 0.231167 0.796933 0.558086
vn 0.000000 0.797363 0.603500
vn -0.485310 0.727288 0.485311
vn -0.263083 0.726214 0.635138
vn -0.231167 0.796933 0.558086
vn -0.426739 0.797362 0.426740
vn -0.686333 0.727288 -0.000000
vn -0.635138 0.726214 0.263083
vn -0.558086 0.796933 0.231167
vn -0.603501 0.797363 -0.000000
vn -0.485311 0.727288 -0.485311
vn -0.635138 0.726214 -0.263083
vn -0.558086 0.796933 -0.231167
vn -0.426739 0.797362 -0.426740
vn -0.000000 0.727288 -0.686332
vn -0.263083 0.726214 -0.635138
vn -0.231167 0.796933 -0.558086
vn -0.000000 0.797363 -0.603500
vn 0.263083 0.726214 -0.635138
vn 0.231167 0.796933 -0.558085
vn 0.290385 -0.651311 -0.701050
vn 0.301444 -0.616044 -0.727751
vn 0.556512 -0.616918 -0.556512
vn -0.000000 -0.652698 -0.757618
vn -0.000000 -0.616919 -0.787027
vn -0.290385 -0.651311 -0.701050
vn -0.301444 -0.616044 -0.727751
vn -0.535718 -0.652698 -0.535716
vn -0.556513 -0.616918 -0.556512
vn -0.701051 -0.651310 -0.290384
vn -0.727751 -0.616044 -0.301444
vn -0.757620 -0.652696 -0.000000
vn -0.787027 -0.616918 0.000000
vn -0.701051 -0.651309 0.290384
vn -0.727751 -0.616044 0.301444
vn -0.535718 -0.652698 0.535717
vn -0.556512 -0.616918 0.556512
vn -0.290385 -0.651311 0.701050
vn -0.301444 -0.616044 0.727751
vn 0.000000 -0.652698 0.757618
vn 0.000000 -0.616919 0.787027
vn 0.290385 -0.651311 0.701050
vn 0.301444 -0.616044 0.727751
vn 0.535718 -0.652698 0.535716
vn 0.556513 -0.616918 0.556512
vn 0.701051 -0.651310 0.290384
vn 0.727751 -0.616044 0.301443
vn 0.787027 -0.616918 -0.000000
vn 0.727751 -0.616044 -0.301444
vn 0.491434 0.846792 0.203559
vn 0.375283 0.847540 0.375284
vn 0.736419 -0.603856 0.305034
vn 0.562985 -0.605059 0.562985
vn 0.203559 0.846792 0.491435
vn 0.000000 0.847540 0.530731
vn 0.305033 -0.603858 0.736417
vn -0.000000 -0.605059 0.796180
vn -0.203559 0.846791 0.491435
vn -0.375283 0.847540 0.375284
vn -0.305033 -0.603859 0.736417
vn -0.562985 -0.605059 0.562985
vn -0.491434 0.846792 0.203560
vn -0.530731 0.847540 -0.000000
vn -0.736418 -0.603856 0.305034
vn -0.796183 -0.605056 0.000000
vn -0.491434 0.846792 -0.203559
vn -0.375283 0.847540 -0.375284
vn -0.736418 -0.603856 -0.305034
vn -0.562985 -0.605059 -0.562985
vn -0.203559 0.846792 -0.491435
vn -0.000000 0.847541 -0.530731
vn -0.305033 -0.603858 -0.736417
vn 0.000000 -0.605059 -0.796180
vn 0.305033 -0.603858 -0.736417
vn 0.203559 0.846792 -0.491434
vn 0.000000 -1.000000 -0.000295
vn 0.000157 -1.000000 -0.000157
vn 0.000000 -1.000000 0.000000
vn -0.000157 -1.000000 -0.000157
vn -0.000295 -1.000000 0.000000
vn -0.000157 -1.000000 0.000157
vn 0.000000 -1.000000 0.000295
vn 0.000157 -1.000000 0.000157
vn 0.000295 -1.000000 -0.000000
vn 0.000319 -1.000000 -0.000319
vn 0.000419 -1.000000 -0.000214
vn 0.000614 -1.000000 0.000000
vn 0.000419 -1.000000 0.000214
vn 0.000214 -1.000000 -0.000419
vn -0.000214 -1.000000 -0.000419
vn 0.000000 -1.000000 -0.000614
vn -0.000319 -1.000000 -0.000319
vn -0.000419 -1.000000 -0.000214
vn -0.000419 -1.000000 0.000214
vn -0.000614 -1.000000 0.000000
vn -0.000319 -1.000000 0.000319
vn -0.000214 -1.000000 0.000419
vn 0.000214 -1.000000 0.000419
vn 0.000000 -1.000000 0.000614
vn 0.000319 -1.000000 0.000319
vn 0.375533 -0.192419 -0.906614
vn 0.693853 -0.192708 -0.693853
vn 0.666673 -0.333310 -0.666673
vn 0.360928 -0.332382 -0.871351
vn -0.000000 -0.333308 -0.942818
vn 0.000000 -0.192706 -0.981257
vn 0.328345 0.513643 -0.792692
vn 0.606197 0.514829 -0.606198
vn 0.639719 0.426050 -0.639719
vn 0.346337 0.425371 -0.836128
vn -0.000000 0.426045 -0.904702
vn 0.000000 0.514825 -0.857295
vn 0.999378 -0.035277 0.000000
vn 0.981257 -0.192705 0.000000
vn 0.906614 -0.192418 -0.375534
vn 0.923308 -0.035168 -0.382448
vn 0.706666 -0.035279 -0.706667
vn 0.706666 -0.035279 0.706667
vn 0.693853 -0.192708 0.693853
vn 0.906614 -0.192418 0.375534
vn 0.923308 -0.035168 0.382448
vn -0.000000 -0.035277 0.999378
vn 0.000000 -0.192706 0.981257
vn 0.375533 -0.192419 0.906614
vn 0.382447 -0.035168 0.923308
vn -0.706666 -0.035279 0.706667
vn -0.693853 -0.192708 0.693853
vn -0.375533 -0.192419 0.906614
vn -0.382447 -0.035168 0.923308
vn -0.999378 -0.035277 0.000000
vn -0.981257 -0.192705 0.000000
vn -0.906614 -0.192418 0.375534
vn -0.923308 -0.035168 0.382448
vn -0.706666 -0.035279 -0.706667
vn -0.693853 -0.192708 -0.693853
vn -0.906614 -0.192418 -0.375534
vn -0.923308 -0.035168 -0.382448
vn 0.000000 -0.035277 -0.999378
vn -0.375533 -0.192419 -0.906614
vn -0.382447 -0.035168 -0.923308
vn 0.382447 -0.035168 -0.923308
vn -0.346337 0.425371 -0.836128
vn -0.639719 0.426050 -0.639719
vn -0.836128 0.425370 -0.346337
vn -0.904703 0.426044 -0.000000
vn -0.836128 0.425371 0.346337
vn -0.639719 0.426050 0.639719
vn -0.346337 0.425371 0.836128
vn 0.000000 0.426045 0.904702
vn 0.346337 0.425371 0.836128
vn 0.639719 0.426050 0.639719
vn 0.836128 0.425370 0.346337
vn 0.904703 0.426044 0.000000
vn 0.836128 0.425370 -0.346337
vn -0.360928 -0.332382 -0.871351
vn -0.666673 -0.333310 -0.666673
vn -0.328345 0.513643 -0.792692
vn -0.606198 0.514829 -0.606198
vn -0.871352 -0.332381 -0.360928
vn -0.942818 -0.333307 0.000000
vn -0.792692 0.513642 -0.328346
vn -0.857296 0.514824 0.000000
vn -0.871352 -0.332381 0.360928
vn -0.666673 -0.333310 0.666673
vn -0.792692 0.513643 0.328346
vn -0.606197 0.514829 0.606198
vn -0.360928 -0.332382 0.871351
vn 0.000000 -0.333308 0.942818
vn -0.328345 0.513643 0.792692
vn -0.000000 0.514825 0.857295
vn 0.360928 -0.332382 0.871351
vn 0.666673 -0.333310 0.666673
vn 0.328345 0.513643 0.792692
vn 0.606198 0.514829 0.606198
vn 0.871352 -0.332381 0.360928
vn 0.942819 -0.333307 0.000000
vn 0.792692 0.513642 0.328346
vn 0.857296 0.514824 -0.000000
vn 0.792692 0.513642 -0.328346
vn 0.871352 -0.332381 -0.360928
vn 0.905763 -0.197061 -0.375180
vn 0.693206 -0.197306 -0.693207
vn 0.706850 0.026937 -0.706851
vn 0.923546 0.026854 -0.382546
vn 0.980342 -0.197305 -0.000000
vn 0.999637 0.026939 -0.000000
vn 0.905763 -0.197062 0.375179
vn 0.923546 0.026854 0.382546
vn 0.693206 -0.197306 0.693206
vn 0.706850 0.026937 0.706851
vn 0.375180 -0.197061 0.905763
vn 0.382546 0.026853 0.923546
vn 0.000000 -0.197305 0.980342
vn 0.000000 0.026937 0.999637
vn -0.375180 -0.197062 0.905763
vn -0.382545 0.026853 0.923546
vn -0.693206 -0.197306 0.693207
vn -0.706850 0.026937 0.706851
vn -0.905763 -0.197061 0.375180
vn -0.923546 0.026854 0.382546
vn -0.980342 -0.197305 0.000000
vn -0.999637 0.026939 0.000000
vn -0.905763 -0.197062 -0.375179
vn -0.923546 0.026854 -0.382546
vn -0.693206 -0.197306 -0.693206
vn -0.706850 0.026937 -0.706851
vn -0.375180 -0.197061 -0.905763
vn -0.382546 0.026853 -0.923546
vn -0.000000 -0.197306 -0.980342
vn -0.000000 0.026937 -0.999637
vn 0.375180 -0.197062 -0.905763
vn 0.382545 0.026853 -0.923546
vn 0.658829 -0.363165 -0.658829
vn 0.356703 -0.362178 -0.861156
vn 0.000000 -0.363164 -0.931725
vn 0.861156 -0.362178 -0.356703
vn 0.931725 -0.363164 0.000000
vn 0.861156 -0.362178 0.356702
vn 0.658829 -0.363165 0.658829
vn 0.356703 -0.362178 0.861156
vn -0.000000 -0.363164 0.931725
vn -0.356703 -0.362178 0.861156
vn -0.658829 -0.363165 0.658829
vn -0.861156 -0.362178 0.356703
vn -0.931725 -0.363164 -0.000000
vn -0.861156 -0.362178 -0.356702
vn -0.658829 -0.363165 -0.658829
vn -0.356703 -0.362178 -0.861156
vn 0.560991 0.797447 -0.222187
vn 0.593293 0.804987 -0.000000
vn 0.437523 0.785586 -0.437524
vn 0.560991 0.797448 0.222187
vn 0.437524 0.785586 0.437524
vn 0.222186 0.797448 0.560990
vn 0.000000 0.804987 0.593292
vn -0.222186 0.797448 0.560990
vn -0.437523 0.785587 0.437523
vn -0.560989 0.797449 0.222186
vn -0.593290 0.804989 0.000000
vn -0.560989 0.797449 -0.222186
vn -0.437523 0.785587 -0.437523
vn -0.222187 0.797448 -0.560990
vn -0.000000 0.804987 -0.593293
vn 0.222186 0.797447 -0.560991
s 1
g Pawn1
usemtl lambert2SG
f 10/20/1 258/424/2 435/296/3 261/429/4
f 258/424/2 2/3/5 259/425/6 435/296/3
f 435/296/3 259/425/6 3/5/7 260/427/8
f 261/429/4 435/296/3 260/427/8 4/8/9
f 10/21/1 261/430/4 436/297/10 264/435/11
f 261/430/4 4/825/9 262/431/12 436/297/10
f 436/297/10 262/431/12 5/10/13 263/433/14
f 264/435/11 436/297/10 263/433/14 6/12/15
f 10/21/1 264/435/11 437/298/16 267/440/17
f 264/435/11 6/12/15 265/436/18 437/298/16
f 437/298/16 265/436/18 7/14/19 266/438/20
f 267/440/17 437/298/16 266/438/20 8/17/21
f 10/20/1 267/441/17 438/299/22 258/424/2
f 267/441/17 8/824/21 268/442/23 438/299/22
f 438/299/22 268/442/23 1/1/24 269/444/25
f 258/424/2 438/299/22 269/444/25 2/3/5
s 2
g textureEditorIsolateSelectSet Pawn1
f 20/34/26 270/446/27 439/300/28 273/451/29
f 270/446/27 19/32/30 271/448/31 439/300/28
f 439/300/28 271/448/31 27/52/32 272/449/33
f 273/451/29 439/300/28 272/449/33 28/54/34
f 21/36/35 274/452/36 440/301/37 276/456/38
f 274/452/36 20/34/26 273/451/29 440/301/37
f 440/301/37 273/451/29 28/54/34 275/454/39
f 276/456/38 440/301/37 275/454/39 29/56/40
f 22/40/41 277/458/42 441/302/43 279/462/44
f 277/458/42 21/37/35 276/457/38 441/302/43
f 441/302/43 276/457/38 29/59/40 278/460/45
f 279/462/44 441/302/43 278/460/45 30/60/46
f 23/42/47 280/463/48 442/303/49 282/467/50
f 280/463/48 22/40/41 279/462/44 442/303/49
f 442/303/49 279/462/44 30/60/46 281/465/51
f 282/467/50 442/303/49 281/465/51 31/62/52
f 24/44/53 283/468/54 443/304/55 285/472/56
f 283/468/54 23/42/47 282/467/50 443/304/55
f 443/304/55 282/467/50 31/62/52 284/470/57
f 285/472/56 443/304/55 284/470/57 32/64/58
f 25/46/59 286/473/60 444/305/61 288/477/62
f 286/473/60 24/44/53 285/472/56 444/305/61
f 444/305/61 285/472/56 32/64/58 287/475/63
f 288/477/62 444/305/61 287/475/63 33/66/64
f 26/50/65 289/479/66 445/306/67 291/483/68
f 289/479/66 25/47/59 288/478/62 445/306/67
f 445/306/67 288/478/62 33/69/64 290/481/69
f 291/483/68 445/306/67 290/481/69 34/70/70
f 19/32/30 292/484/71 446/307/72 271/448/31
f 292/484/71 26/50/65 291/483/68 446/307/72
f 446/307/72 291/483/68 34/70/70 293/486/73
f 271/448/31 446/307/72 293/486/73 27/52/32
s 3
f 36/74/74 294/488/75 447/308/76 297/492/77
f 294/488/75 35/72/78 295/490/79 447/308/76
f 447/308/76 295/490/79 43/92/80 296/491/81
f 297/492/77 447/308/76 296/491/81 44/93/82
f 37/76/83 298/493/84 448/309/85 300/496/86
f 298/493/84 36/74/74 297/492/77 448/309/85
f 448/309/85 297/492/77 44/93/82 299/495/87
f 300/496/86 448/309/85 299/495/87 45/94/88
f 38/80/89 301/498/90 449/310/91 303/501/92
f 301/498/90 37/77/83 300/497/86 449/310/91
f 449/310/91 300/497/86 45/95/88 302/500/93
f 303/501/92 449/310/91 302/500/93 46/96/94
f 39/82/95 304/502/96 450/311/97 306/505/98
f 304/502/96 38/80/89 303/501/92 450/311/97
f 450/311/97 303/501/92 46/96/94 305/504/99
f 306/505/98 450/311/97 305/504/99 47/97/100
f 40/84/101 307/506/102 451/312/103 309/509/104
f 307/506/102 39/82/95 306/505/98 451/312/103
f 451/312/103 306/505/98 47/97/100 308/508/105
f 309/509/104 451/312/103 308/508/105 48/98/106
f 41/86/107 310/510/108 452/313/109 312/513/110
f 310/510/108 40/84/101 309/509/104 452/313/109
f 452/313/109 309/509/104 48/98/106 311/512/111
f 312/513/110 452/313/109 311/512/111 49/99/112
f 42/90/113 313/515/114 453/314/115 315/518/116
f 313/515/114 41/87/107 312/514/110 453/314/115
f 453/314/115 312/514/110 49/100/112 314/517/117
f 315/518/116 453/314/115 314/517/117 50/101/118
f 35/72/78 316/519/119 454/315/120 295/490/79
f 316/519/119 42/90/113 315/518/116 454/315/120
f 454/315/120 315/518/116 50/101/118 317/521/121
f 295/490/79 454/315/120 317/521/121 43/92/80
s 1
f 82/151/122 318/522/123 455/316/124 321/526/125
f 318/522/123 75/142/126 319/523/127 455/316/124
f 455/316/124 319/523/127 59/112/128 320/524/129
f 321/526/125 455/316/124 320/524/129 60/114/130
f 81/149/131 322/527/132 456/317/133 324/530/134
f 322/527/132 82/151/122 321/526/125 456/317/133
f 456/317/133 321/526/125 60/114/130 323/528/135
f 324/530/134 456/317/133 323/528/135 61/116/136
f 80/148/137 325/532/138 457/318/139 327/535/140
f 325/532/138 81/150/131 324/531/134 457/318/139
f 457/318/139 324/531/134 61/119/136 326/533/141
f 327/535/140 457/318/139 326/533/141 62/120/142
f 79/147/143 328/536/144 458/319/145 330/539/146
f 328/536/144 80/148/137 327/535/140 458/319/145
f 458/319/145 327/535/140 62/120/142 329/537/147
f 330/539/146 458/319/145 329/537/147 63/122/148
f 78/146/149 331/540/150 459/320/151 333/543/152
f 331/540/150 79/147/143 330/539/146 459/320/151
f 459/320/151 330/539/146 63/122/148 332/541/153
f 333/543/152 459/320/151 332/541/153 64/124/154
f 77/144/155 334/544/156 460/321/157 336/547/158
f 334/544/156 78/146/149 333/543/152 460/321/157
f 460/321/157 333/543/152 64/124/154 335/545/159
f 336/547/158 460/321/157 335/545/159 65/126/160
f 76/143/161 337/549/162 461/322/163 339/552/164
f 337/549/162 77/145/155 336/548/158 461/322/163
f 461/322/163 336/548/158 65/129/160 338/550/165
f 339/552/164 461/322/163 338/550/165 66/130/166
f 75/142/126 340/553/167 462/323/168 319/523/127
f 340/553/167 76/143/161 339/552/164 462/323/168
f 462/323/168 339/552/164 66/130/166 341/554/169
f 319/523/127 462/323/168 341/554/169 59/112/128
f 60/115/130 320/525/129 463/324/170 344/558/171
f 320/525/129 59/113/128 342/556/172 463/324/170
f 463/324/170 342/556/172 67/132/173 343/557/174
f 344/558/171 463/324/170 343/557/174 68/133/175
f 61/117/136 323/529/135 464/325/176 346/560/177
f 323/529/135 60/115/130 344/558/171 464/325/176
f 464/325/176 344/558/171 68/133/175 345/559/178
f 346/560/177 464/325/176 345/559/178 69/134/179
f 62/121/142 326/534/141 465/326/180 348/563/181
f 326/534/141 61/118/136 346/561/177 465/326/180
f 465/326/180 346/561/177 69/135/179 347/562/182
f 348/563/181 465/326/180 347/562/182 70/136/183
f 63/123/148 329/538/147 466/327/184 350/565/185
f 329/538/147 62/121/142 348/563/181 466/327/184
f 466/327/184 348/563/181 70/136/183 349/564/186
f 350/565/185 466/327/184 349/564/186 71/137/187
f 64/125/154 332/542/153 467/328/188 352/567/189
f 332/542/153 63/123/148 350/565/185 467/328/188
f 467/328/188 350/565/185 71/137/187 351/566/190
f 352/567/189 467/328/188 351/566/190 72/138/191
f 65/127/160 335/546/159 468/329/192 354/569/193
f 335/546/159 64/125/154 352/567/189 468/329/192
f 468/329/192 352/567/189 72/138/191 353/568/194
f 354/569/193 468/329/192 353/568/194 73/139/195
f 66/131/166 338/551/165 469/330/196 356/572/197
f 338/551/165 65/128/160 354/570/193 469/330/196
f 469/330/196 354/570/193 73/140/195 355/571/198
f 356/572/197 469/330/196 355/571/198 74/141/199
f 59/113/128 341/555/169 470/331/200 342/556/172
f 341/555/169 66/131/166 356/572/197 470/331/200
f 470/331/200 356/572/197 74/141/199 357/573/201
f 342/556/172 470/331/200 357/573/201 67/132/173
f 68/133/175 343/557/174 471/332/202 360/576/203
f 343/557/174 67/132/173 358/574/204 471/332/202
f 471/332/202 358/574/204 147/286/205 359/575/206
f 360/576/203 471/332/202 359/575/206 148/287/207
f 69/134/179 345/559/178 472/333/208 362/578/209
f 345/559/178 68/133/175 360/576/203 472/333/208
f 472/333/208 360/576/203 148/287/207 361/577/210
f 362/578/209 472/333/208 361/577/210 149/288/211
f 70/136/183 347/562/182 473/334/212 364/581/213
f 347/562/182 69/135/179 362/579/209 473/334/212
f 473/334/212 362/579/209 149/289/211 363/580/214
f 364/581/213 473/334/212 363/580/214 150/290/215
f 71/137/187 349/564/186 474/335/216 366/583/217
f 349/564/186 70/136/183 364/581/213 474/335/216
f 474/335/216 364/581/213 150/290/215 365/582/218
f 366/583/217 474/335/216 365/582/218 151/291/219
f 72/138/191 351/566/190 475/336/220 368/585/221
f 351/566/190 71/137/187 366/583/217 475/336/220
f 475/336/220 366/583/217 151/291/219 367/584/222
f 368/585/221 475/336/220 367/584/222 152/292/223
f 73/139/195 353/568/194 476/337/224 370/587/225
f 353/568/194 72/138/191 368/585/221 476/337/224
f 476/337/224 368/585/221 152/292/223 369/586/226
f 370/587/225 476/337/224 369/586/226 153/293/227
f 74/141/199 355/571/198 477/338/228 372/590/229
f 355/571/198 73/140/195 370/588/225 477/338/228
f 477/338/228 370/588/225 153/294/227 371/589/230
f 372/590/229 477/338/228 371/589/230 154/295/231
f 67/132/173 357/573/201 478/339/232 358/574/204
f 357/573/201 74/141/199 372/590/229 478/339/232
f 478/339/232 372/590/229 154/295/231 373/591/233
f 358/574/204 478/339/232 373/591/233 147/286/205
s 11
f 35/73/234 374/592/235 479/340/236 316/520/237
f 374/592/235 83/152/238 375/593/239 479/340/236
f 479/340/236 375/593/239 84/154/240 376/595/241
f 316/520/237 479/340/236 376/595/241 42/91/242
s 12
f 83/153/243 377/596/244 480/341/245 375/594/246
f 480/341/245 377/596/244 380/599/247 481/342/248
f 378/597/249 480/341/245 481/342/248 379/598/250
f 375/594/246 480/341/245 378/597/249 84/155/251
s 2
f 27/53/32 293/487/73 481/342/252 380/599/253
f 293/487/73 34/71/70 379/598/254 481/342/252
f 34/71/70 290/482/69 482/343/255 379/598/254
f 290/482/69 33/68/64 381/600/256 482/343/255
f 33/67/64 287/476/63 483/344/257 381/601/256
f 287/476/63 32/65/58 382/602/258 483/344/257
f 32/65/58 284/471/57 484/345/259 382/602/258
f 284/471/57 31/63/52 383/603/260 484/345/259
f 31/63/52 281/466/51 485/346/261 383/603/260
f 281/466/51 30/61/46 384/604/262 485/346/261
f 30/61/46 278/461/45 486/347/263 384/604/262
f 278/461/45 29/58/40 385/605/264 486/347/263
f 29/57/40 275/455/39 487/348/265 385/606/264
f 275/455/39 28/55/34 386/607/266 487/348/265
f 28/55/34 272/450/33 488/349/267 386/607/266
f 272/450/33 27/53/32 380/599/253 488/349/267
s 11
f 42/91/242 376/595/241 489/350/268 313/516/269
f 376/595/241 84/154/240 387/608/270 489/350/268
f 489/350/268 387/608/270 85/156/271 388/610/272
f 313/516/269 489/350/268 388/610/272 41/88/273
s 12
f 84/155/251 378/597/249 490/351/274 387/609/275
f 482/343/276 490/351/274 378/597/249 379/598/250
f 389/612/277 490/351/274 482/343/276 381/600/278
f 387/609/275 490/351/274 389/612/277 85/157/279
s 11
f 41/89/273 388/611/272 491/352/280 310/511/281
f 388/611/272 85/159/271 390/614/282 491/352/280
f 491/352/280 390/614/282 86/160/283 391/616/284
f 310/511/281 491/352/280 391/616/284 40/85/285
s 12
f 85/158/279 389/613/277 492/353/286 390/615/287
f 483/344/288 492/353/286 389/613/277 381/601/278
f 392/617/289 492/353/286 483/344/288 382/602/290
f 390/615/287 492/353/286 392/617/289 86/161/291
s 11
f 40/85/285 391/616/284 493/354/292 307/507/293
f 391/616/284 86/160/283 393/618/294 493/354/292
f 493/354/292 393/618/294 87/162/295 394/620/296
f 307/507/293 493/354/292 394/620/296 39/83/297
s 12
f 86/161/291 392/617/289 494/355/298 393/619/299
f 484/345/300 494/355/298 392/617/289 382/602/290
f 395/621/301 494/355/298 484/345/300 383/603/302
f 393/619/299 494/355/298 395/621/301 87/163/303
s 11
f 39/83/297 394/620/296 495/356/304 304/503/305
f 394/620/296 87/162/295 396/622/306 495/356/304
f 495/356/304 396/622/306 88/164/307 397/624/308
f 304/503/305 495/356/304 397/624/308 38/81/309
s 12
f 87/163/303 395/621/301 496/357/310 396/623/311
f 485/346/312 496/357/310 395/621/301 383/603/302
f 398/625/313 496/357/310 485/346/312 384/604/314
f 396/623/311 496/357/310 398/625/313 88/165/315
s 11
f 38/81/309 397/624/308 497/358/316 301/499/317
f 397/624/308 88/164/307 399/626/318 497/358/316
f 497/358/316 399/626/318 89/166/319 400/628/320
f 301/499/317 497/358/316 400/628/320 37/78/321
s 12
f 88/165/315 398/625/313 498/359/322 399/627/323
f 486/347/324 498/359/322 398/625/313 384/604/314
f 401/630/325 498/359/322 486/347/324 385/605/326
f 399/627/323 498/359/322 401/630/325 89/167/327
s 11
f 37/79/321 400/629/320 499/360/328 298/494/329
f 400/629/320 89/169/319 402/632/330 499/360/328
f 499/360/328 402/632/330 90/170/331 403/634/332
f 298/494/329 499/360/328 403/634/332 36/75/333
s 12
f 89/168/327 401/631/325 500/361/334 402/633/335
f 487/348/336 500/361/334 401/631/325 385/606/326
f 404/635/337 500/361/334 487/348/336 386/607/338
f 402/633/335 500/361/334 404/635/337 90/171/339
f 377/596/244 501/362/340 488/349/341 380/599/247
f 377/596/244 83/153/243 405/636/342 501/362/340
f 501/362/340 405/636/342 90/171/339 404/635/337
f 488/349/341 501/362/340 404/635/337 386/607/338
s 11
f 83/152/238 374/592/235 502/363/343 405/637/344
f 374/592/235 35/73/234 294/489/345 502/363/343
f 502/363/343 294/489/345 36/75/333 403/634/332
f 405/637/344 502/363/343 403/634/332 90/170/331
s 13
f 91/172/346 406/638/347 202/737/348 123/231/349
f 406/638/347 98/181/350 130/247/351 202/737/348
f 92/173/352 407/639/353 203/738/354 124/232/355
f 407/639/353 91/172/346 123/231/349 203/738/354
f 93/174/356 408/640/357 204/740/358 125/234/359
f 408/640/357 92/173/352 124/232/355 204/740/358
f 94/176/360 409/641/361 205/742/362 126/237/363
f 409/641/361 93/175/356 125/236/359 205/742/362
f 95/177/364 410/642/365 206/744/366 127/239/367
f 410/642/365 94/176/360 126/237/363 206/744/366
f 96/178/368 411/643/369 207/746/370 128/241/371
f 411/643/369 95/177/364 127/239/367 207/746/370
f 97/179/372 412/644/373 208/748/374 129/243/375
f 412/644/373 96/178/368 128/241/371 208/748/374
f 130/247/351 98/181/350 413/645/376 209/750/377
f 413/645/376 97/180/372 129/245/375 209/750/377
f 91/172/346 407/639/353 503/364/378 416/648/379
f 407/639/353 92/173/352 414/646/380 503/364/378
f 503/364/378 414/646/380 18/31/381 415/647/382
f 416/648/379 503/364/378 415/647/382 11/22/383
f 92/173/352 408/640/357 504/365/384 414/646/380
f 408/640/357 93/174/356 417/649/385 504/365/384
f 504/365/384 417/649/385 17/29/386 418/651/387
f 414/646/380 504/365/384 418/651/387 18/31/381
f 93/175/356 409/641/361 505/366/388 417/650/385
f 409/641/361 94/176/360 419/652/389 505/366/388
f 505/366/388 419/652/389 16/28/390 420/653/391
f 417/650/385 505/366/388 420/653/391 17/30/386
f 94/176/360 410/642/365 506/367/392 419/652/389
f 410/642/365 95/177/364 421/654/393 506/367/392
f 506/367/392 421/654/393 15/27/394 422/655/395
f 419/652/389 506/367/392 422/655/395 16/28/390
f 95/177/364 411/643/369 507/368/396 421/654/393
f 411/643/369 96/178/368 423/656/397 507/368/396
f 507/368/396 423/656/397 14/26/398 424/657/399
f 421/654/393 507/368/396 424/657/399 15/27/394
f 96/178/368 412/644/373 508/369/400 423/656/397
f 412/644/373 97/179/372 425/658/401 508/369/400
f 508/369/400 425/658/401 13/24/402 426/660/403
f 423/656/397 508/369/400 426/660/403 14/26/398
f 97/180/372 413/645/376 509/370/404 425/659/401
f 413/645/376 98/181/350 427/661/405 509/370/404
f 509/370/404 427/661/405 12/23/406 428/662/407
f 425/659/401 509/370/404 428/662/407 13/25/402
f 98/181/350 406/638/347 510/371/408 427/661/405
f 406/638/347 91/172/346 416/648/379 510/371/408
f 510/371/408 416/648/379 11/22/383 429/663/409
f 427/661/405 510/371/408 429/663/409 12/23/406
s 20
f 242/799/410 430/664/411 100/184/412 146/285/413
s 3
f 430/665/414 99/183/415 43/92/80 317/521/121
f 430/665/414 317/521/121 50/101/118 100/185/416
f 431/667/417 314/517/117 49/100/112 101/187/418
f 432/669/419 311/512/111 48/98/106 102/190/420
f 433/671/421 308/508/105 47/97/100 103/192/422
f 434/673/423 305/504/99 46/96/94 104/194/424
f 155/675/425 302/500/93 45/95/88 105/196/426
f 156/677/427 299/495/87 44/93/82 106/199/428
f 296/491/81 43/92/80 99/183/415 157/678/429
s 20
f 431/666/430 101/186/431 145/281/432 249/812/433
s 3
f 431/667/417 100/185/416 50/101/118 314/517/117
s 20
f 432/668/434 102/189/435 144/279/436 248/810/437
s 3
f 432/669/419 101/188/418 49/99/112 311/512/111
s 20
f 433/670/438 103/191/439 143/277/440 247/808/441
s 3
f 433/671/421 102/190/420 48/98/106 308/508/105
s 20
f 434/672/442 104/193/443 142/275/444 246/806/445
s 3
f 434/673/423 103/192/422 47/97/100 305/504/99
s 20
f 155/674/446 105/195/447 141/272/448 245/804/449
s 3
f 155/675/425 104/194/424 46/96/94 302/500/93
s 20
f 156/676/450 106/198/451 140/270/452 244/802/453
s 3
f 156/677/427 105/197/426 45/94/88 299/495/87
f 296/491/81 157/678/429 106/199/428 44/93/82
s 20
f 157/679/454 99/182/455 139/269/456 243/800/457
s 27
f 511/372/458 161/684/459 108/201/460 158/680/461
f 511/372/458 158/680/461 109/203/462 162/685/463
s 1
f 158/681/464 108/202/465 107/200/466 159/682/467
f 158/681/464 159/682/467 110/205/468 109/204/469
s 27
f 52/103/470 160/683/471 511/372/458 162/685/463
f 160/683/471 51/102/472 161/684/459 511/372/458
f 53/104/473 163/686/474 512/373/475 164/687/476
f 163/686/474 52/103/470 162/685/463 512/373/475
f 54/106/477 165/689/478 513/374/479 166/690/480
f 165/689/478 53/105/473 164/688/476 513/374/479
f 55/107/481 167/691/482 514/375/483 168/692/484
f 167/691/482 54/106/477 166/690/480 514/375/483
f 56/108/485 169/693/486 515/376/487 170/694/488
f 169/693/486 55/107/481 168/692/484 515/376/487
f 57/109/489 171/695/490 516/377/491 172/696/492
f 171/695/490 56/108/485 170/694/488 516/377/491
f 58/111/493 173/698/494 517/378/495 174/699/496
f 173/698/494 57/110/489 172/697/492 517/378/495
f 51/102/472 175/700/497 518/379/498 161/684/459
f 175/700/497 58/111/493 174/699/496 518/379/498
s 1
f 107/200/466 176/701/499 519/380/500 178/703/501
f 176/701/499 122/229/502 177/702/503 519/380/500
f 519/380/500 177/702/503 76/143/161 340/553/167
f 178/703/501 519/380/500 340/553/167 75/142/126
f 122/229/502 179/704/504 520/381/505 177/702/503
f 179/704/504 120/225/506 180/705/507 520/381/505
f 520/381/505 180/705/507 77/145/155 337/549/162
f 177/702/503 520/381/505 337/549/162 76/143/161
f 120/226/506 181/707/508 521/382/509 180/706/507
f 181/707/508 118/220/510 182/708/511 521/382/509
f 521/382/509 182/708/511 78/146/149 334/544/156
f 180/706/507 521/382/509 334/544/156 77/144/155
f 118/220/510 183/709/512 522/383/513 182/708/511
f 183/709/512 116/217/514 184/710/515 522/383/513
f 522/383/513 184/710/515 79/147/143 331/540/150
f 182/708/511 522/383/513 331/540/150 78/146/149
f 116/217/514 185/711/516 523/384/517 184/710/515
f 185/711/516 114/214/518 186/712/519 523/384/517
f 523/384/517 186/712/519 80/148/137 328/536/144
f 184/710/515 523/384/517 328/536/144 79/147/143
f 114/214/518 187/713/520 524/385/521 186/712/519
f 187/713/520 112/210/522 188/714/523 524/385/521
f 524/385/521 188/714/523 81/150/131 325/532/138
f 186/712/519 524/385/521 325/532/138 80/148/137
f 112/211/522 189/716/524 525/386/525 188/715/523
f 189/716/524 110/205/468 190/717/526 525/386/525
f 525/386/525 190/717/526 82/151/122 322/527/132
f 188/715/523 525/386/525 322/527/132 81/149/131
f 110/205/468 159/682/467 526/387/527 190/717/526
f 159/682/467 107/200/466 178/703/501 526/387/527
f 526/387/527 178/703/501 75/142/126 318/522/123
f 190/717/526 526/387/527 318/522/123 82/151/122
s 27
f 512/373/475 162/685/463 109/203/462 191/718/528
f 512/373/475 191/718/528 111/206/529 164/687/476
s 1
f 191/719/530 109/204/469 110/205/468 189/716/524
f 191/719/530 189/716/524 112/211/522 111/207/531
s 27
f 513/374/479 164/688/476 111/209/529 192/720/532
f 513/374/479 192/720/532 113/212/533 166/690/480
s 1
f 192/721/534 111/208/531 112/210/522 187/713/520
f 192/721/534 187/713/520 114/214/518 113/213/535
s 27
f 514/375/483 166/690/480 113/212/533 193/722/536
f 514/375/483 193/722/536 115/215/537 168/692/484
s 1
f 193/723/538 113/213/535 114/214/518 185/711/516
f 193/723/538 185/711/516 116/217/514 115/216/539
s 27
f 515/376/487 168/692/484 115/215/537 194/724/540
f 515/376/487 194/724/540 117/218/541 170/694/488
s 1
f 194/725/542 115/216/539 116/217/514 183/709/512
f 194/725/542 183/709/512 118/220/510 117/219/543
s 27
f 516/377/491 170/694/488 117/218/541 195/726/544
f 516/377/491 195/726/544 119/221/545 172/696/492
s 1
f 195/727/546 117/219/543 118/220/510 181/707/508
f 195/727/546 181/707/508 120/226/506 119/222/547
s 27
f 517/378/495 172/697/492 119/224/545 196/728/548
f 517/378/495 196/728/548 121/227/549 174/699/496
s 1
f 196/729/550 119/223/547 120/225/506 179/704/504
f 196/729/550 179/704/504 122/229/502 121/228/551
f 176/701/499 107/200/466 108/202/465 197/730/552
f 176/701/499 197/730/552 121/228/551 122/229/502
s 27
f 197/731/553 108/201/460 161/684/459 518/379/498
f 197/731/553 518/379/498 174/699/496 121/227/549
s 29
g Pawn1
f 527/388/554 198/732/555 9/19/556 199/733/557
f 528/389/558 199/733/557 9/19/556 200/734/559
f 529/390/560 200/734/559 9/19/556 201/735/561
f 530/391/562 201/735/561 9/19/556 198/732/555
f 123/230/563 202/736/564 530/391/562 198/732/555
f 530/391/562 202/736/564 130/246/565 209/751/566
f 527/388/554 203/739/567 123/230/563 198/732/555
f 527/388/554 204/741/568 124/233/569 203/739/567
f 125/235/570 204/741/568 527/388/554 199/733/557
f 528/389/558 205/743/571 125/235/570 199/733/557
f 528/389/558 206/745/572 126/238/573 205/743/571
f 127/240/574 206/745/572 528/389/558 200/734/559
f 529/390/560 207/747/575 127/240/574 200/734/559
f 529/390/560 208/749/576 128/242/577 207/747/575
f 129/244/578 208/749/576 529/390/560 201/735/561
f 530/391/562 209/751/566 129/244/578 201/735/561
s 30
g textureEditorIsolateSelectSet Pawn1
f 538/399/579 212/755/580 131/248/581 210/752/582
f 538/399/579 210/752/582 132/250/583 218/763/584
s 13
f 210/753/585 131/249/586 220/765/587 539/400/588
f 210/753/585 539/400/588 219/764/589 132/251/590
s 30
f 20/35/591 211/754/592 531/392/593 270/447/594
f 270/447/594 531/392/593 212/755/580 19/33/595
f 21/39/596 213/756/597 532/393/598 274/453/599
f 274/453/599 532/393/598 211/754/592 20/35/591
f 22/41/600 214/758/601 533/394/602 277/459/603
f 277/459/603 533/394/602 213/757/597 21/38/596
f 23/43/604 215/759/605 534/395/606 280/464/607
f 280/464/607 534/395/606 214/758/601 22/41/600
f 24/45/608 216/760/609 535/396/610 283/469/611
f 283/469/611 535/396/610 215/759/605 23/43/604
f 25/49/612 217/761/613 536/397/614 286/474/615
f 286/474/615 536/397/614 216/760/609 24/45/608
f 26/51/616 218/763/584 537/398/617 289/480/618
f 289/480/618 537/398/617 217/762/613 25/48/612
f 19/33/595 212/755/580 538/399/579 292/485/619
f 292/485/619 538/399/579 218/763/584 26/51/616
s 13
f 11/22/383 415/647/382 539/400/588 220/765/587
f 415/647/382 18/31/381 219/764/589 539/400/588
f 18/31/381 418/651/387 540/401/620 219/764/589
f 418/651/387 17/29/386 221/766/621 540/401/620
f 17/30/386 420/653/391 541/402/622 221/767/621
f 420/653/391 16/28/390 222/768/623 541/402/622
f 16/28/390 422/655/395 542/403/624 222/768/623
f 422/655/395 15/27/394 223/769/625 542/403/624
f 15/27/394 424/657/399 543/404/626 223/769/625
f 424/657/399 14/26/398 224/770/627 543/404/626
f 14/26/398 426/660/403 544/405/628 224/770/627
f 426/660/403 13/24/402 225/771/629 544/405/628
f 13/25/402 428/662/407 545/406/630 225/772/629
f 428/662/407 12/23/406 226/773/631 545/406/630
f 12/23/406 429/663/409 546/407/632 226/773/631
f 429/663/409 11/22/383 220/765/587 546/407/632
s 30
f 537/398/617 218/763/584 132/250/583 227/774/633
f 537/398/617 227/774/633 133/252/634 217/762/613
s 13
f 227/775/635 132/251/590 219/764/589 540/401/620
f 227/775/635 540/401/620 221/766/621 133/253/636
s 30
f 536/397/614 217/761/613 133/255/634 228/776/637
f 536/397/614 228/776/637 134/256/638 216/760/609
s 13
f 228/777/639 133/254/636 221/767/621 541/402/622
f 228/777/639 541/402/622 222/768/623 134/257/640
s 30
f 535/396/610 216/760/609 134/256/638 229/778/641
f 535/396/610 229/778/641 135/258/642 215/759/605
s 13
f 229/779/643 134/257/640 222/768/623 542/403/624
f 229/779/643 542/403/624 223/769/625 135/259/644
s 30
f 534/395/606 215/759/605 135/258/642 230/780/645
f 534/395/606 230/780/645 136/260/646 214/758/601
s 13
f 230/781/647 135/259/644 223/769/625 543/404/626
f 230/781/647 543/404/626 224/770/627 136/261/648
s 30
f 533/394/602 214/758/601 136/260/646 231/782/649
f 533/394/602 231/782/649 137/262/650 213/757/597
s 13
f 231/783/651 136/261/648 224/770/627 544/405/628
f 231/783/651 544/405/628 225/771/629 137/263/652
s 30
f 532/393/598 213/756/597 137/265/650 232/784/653
f 532/393/598 232/784/653 138/266/654 211/754/592
s 13
f 232/785/655 137/264/652 225/772/629 545/406/630
f 232/785/655 545/406/630 226/773/631 138/267/656
f 546/407/632 220/765/587 131/249/586 233/786/657
f 546/407/632 233/786/657 138/267/656 226/773/631
s 30
f 233/787/658 131/248/581 212/755/580 531/392/593
f 233/787/658 531/392/593 211/754/592 138/266/654
s 38
f 547/408/659 234/788/660 51/102/661 160/683/662
f 235/789/663 547/408/659 160/683/662 52/103/664
f 548/409/665 235/789/663 52/103/664 163/686/666
f 236/790/667 548/409/665 163/686/666 53/104/668
f 549/410/669 236/791/667 53/105/668 165/689/670
f 237/792/671 549/410/669 165/689/670 54/106/672
f 550/411/673 237/792/671 54/106/672 167/691/674
f 238/793/675 550/411/673 167/691/674 55/107/676
f 551/412/677 238/793/675 55/107/676 169/693/678
f 239/794/679 551/412/677 169/693/678 56/108/680
f 552/413/681 239/794/679 56/108/680 171/695/682
f 240/795/683 552/413/681 171/695/682 57/109/684
f 553/414/685 240/796/683 57/110/684 173/698/686
f 241/797/687 553/414/685 173/698/686 58/111/688
f 554/415/689 241/797/687 58/111/688 175/700/690
f 234/788/660 554/415/689 175/700/690 51/102/661
f 139/268/691 242/798/692 554/415/689 234/788/660
f 554/415/689 242/798/692 146/284/693 241/797/687
s 20
f 242/799/410 139/269/456 99/182/455 430/664/411
f 157/679/454 243/800/457 140/270/452 106/198/451
s 38
f 547/408/659 243/801/694 139/268/691 234/788/660
f 140/271/695 243/801/694 547/408/659 235/789/663
s 20
f 156/676/450 244/802/453 141/272/448 105/195/447
s 38
f 548/409/665 244/803/696 140/271/695 235/789/663
f 141/273/697 244/803/696 548/409/665 236/790/667
s 20
f 155/674/446 245/804/449 142/275/444 104/193/443
s 38
f 549/410/669 245/805/698 141/274/697 236/791/667
f 142/276/699 245/805/698 549/410/669 237/792/671
s 20
f 434/672/442 246/806/445 143/277/440 103/191/439
s 38
f 550/411/673 246/807/700 142/276/699 237/792/671
f 143/278/701 246/807/700 550/411/673 238/793/675
s 20
f 433/670/438 247/808/441 144/279/436 102/189/435
s 38
f 551/412/677 247/809/702 143/278/701 238/793/675
f 144/280/703 247/809/702 551/412/677 239/794/679
s 20
f 432/668/434 248/810/437 145/281/432 101/186/431
s 38
f 552/413/681 248/811/704 144/280/703 239/794/679
f 145/282/705 248/811/704 552/413/681 240/795/683
s 20
f 431/666/430 249/812/433 146/285/413 100/184/412
s 38
f 553/414/685 249/813/706 145/283/705 240/796/683
f 146/284/693 249/813/706 553/414/685 241/797/687
s 1
f 148/287/207 359/575/206 555/416/707 251/815/708
f 359/575/206 147/286/205 250/814/709 555/416/707
f 555/416/707 250/814/709 1/2/24 268/443/23
f 251/815/708 555/416/707 268/443/23 8/18/21
f 149/288/211 361/577/210 556/417/710 252/816/711
f 361/577/210 148/287/207 251/815/708 556/417/710
f 556/417/710 251/815/708 8/18/21 266/439/20
f 252/816/711 556/417/710 266/439/20 7/16/19
f 150/290/215 363/580/214 557/418/712 253/818/713
f 363/580/214 149/289/211 252/817/711 557/418/712
f 557/418/712 252/817/711 7/15/19 265/437/18
f 253/818/713 557/418/712 265/437/18 6/13/15
f 151/291/219 365/582/218 558/419/714 254/819/715
f 365/582/218 150/290/215 253/818/713 558/419/714
f 558/419/714 253/818/713 6/13/15 263/434/14
f 254/819/715 558/419/714 263/434/14 5/11/13
f 152/292/223 367/584/222 559/420/716 255/820/717
f 367/584/222 151/291/219 254/819/715 559/420/716
f 559/420/716 254/819/715 5/11/13 262/432/12
f 255/820/717 559/420/716 262/432/12 4/9/9
f 153/293/227 369/586/226 560/421/718 256/821/719
f 369/586/226 152/292/223 255/820/717 560/421/718
f 560/421/718 255/820/717 4/9/9 260/428/8
f 256/821/719 560/421/718 260/428/8 3/7/7
f 154/295/231 371/589/230 561/422/720 257/823/721
f 371/589/230 153/294/227 256/822/719 561/422/720
f 561/422/720 256/822/719 3/6/7 259/426/6
f 257/823/721 561/422/720 259/426/6 2/4/5
f 147/286/205 373/591/233 562/423/722 250/814/709
f 373/591/233 154/295/231 257/823/721 562/423/722
f 562/423/722 257/823/721 2/4/5 269/445/25
f 250/814/709 562/423/722 269/445/25 1/2/24
