# Blender v2.74 (sub 0) OBJ File: ''
# www.blender.org
mtllib suitsclone.mtl
o Diamond
v -2.431570 0.000981 0.115264
v -2.716254 0.001471 0.000000
v -2.431570 0.000981 -0.115264
v -2.390825 0.042877 0.113132
v -2.655138 0.064315 0.000000
v -2.390825 0.042877 -0.113132
v -2.350926 0.085303 0.111294
v -2.595289 0.127955 0.000000
v -2.350926 0.085303 -0.111294
v -2.311836 0.128309 0.109745
v -2.536653 0.192463 0.000000
v -2.311836 0.128309 -0.109745
v -2.273520 0.171939 0.108483
v -2.479179 0.257909 0.000000
v -2.273520 0.171939 -0.108483
v -2.235945 0.216238 0.107505
v -2.422818 0.324356 0.000000
v -2.235945 0.216238 -0.107505
v -2.199081 0.261246 0.106807
v -2.367522 0.391869 0.000000
v -2.199081 0.261246 -0.106807
v -2.162898 0.307005 0.106389
v -2.313247 0.460507 0.000000
v -2.162898 0.307005 -0.106389
v -2.127365 0.353553 0.106250
v -2.259948 0.530330 0.000000
v -2.127365 0.353553 -0.106250
v -2.092454 0.400930 0.106389
v -2.207581 0.601396 0.000000
v -2.092454 0.400930 -0.106389
v -2.058135 0.449175 0.106807
v -2.156102 0.673763 0.000000
v -2.058135 0.449175 -0.106807
v -2.024378 0.498327 0.107505
v -2.105467 0.747490 0.000000
v -2.024378 0.498327 -0.107505
v -1.991154 0.548426 0.108483
v -2.055631 0.822639 0.000000
v -1.991154 0.548426 -0.108483
v -1.958432 0.599514 0.109745
v -2.006547 0.899271 0.000000
v -1.958432 0.599514 -0.109745
v -1.926177 0.651635 0.111294
v -1.958166 0.977452 0.000000
v -1.926177 0.651635 -0.111294
v -1.894358 0.704834 0.113132
v -1.910436 1.057250 0.000000
v -1.894358 0.704834 -0.113132
v -1.862935 0.759159 0.115264
v -1.863303 1.138739 0.000000
v -1.862935 0.759159 -0.115264
v -1.861465 -0.759159 -0.115264
v -1.861097 -1.138739 0.000000
v -1.861465 -0.759159 0.115264
v -1.830042 -0.704834 -0.113132
v -1.813964 -1.057250 0.000000
v -1.830042 -0.704834 0.113132
v -1.798223 -0.651635 -0.111294
v -1.766234 -0.977452 0.000000
v -1.798223 -0.651635 0.111294
v -1.765968 -0.599514 -0.109745
v -1.717853 -0.899271 0.000000
v -1.765968 -0.599514 0.109745
v -1.733246 -0.548426 -0.108483
v -1.668769 -0.822639 0.000000
v -1.733246 -0.548426 0.108483
v -1.700022 -0.498327 -0.107505
v -1.618933 -0.747490 0.000000
v -1.700022 -0.498327 0.107505
v -1.666265 -0.449175 -0.106807
v -1.568298 -0.673763 0.000000
v -1.666265 -0.449175 0.106807
v -1.631946 -0.400930 -0.106389
v -1.516819 -0.601396 0.000000
v -1.631946 -0.400930 0.106389
v -1.597035 -0.353553 -0.106250
v -1.464453 -0.530330 0.000000
v -1.597035 -0.353553 0.106250
v -1.561502 -0.307005 -0.106389
v -1.411153 -0.460507 0.000000
v -1.561502 -0.307005 0.106389
v -1.525319 -0.261246 -0.106807
v -1.356878 -0.391869 0.000000
v -1.525319 -0.261246 0.106807
v -1.488455 -0.216238 -0.107505
v -1.301582 -0.324356 0.000000
v -1.488455 -0.216238 0.107505
v -1.450881 -0.171939 -0.108483
v -1.245221 -0.257909 0.000000
v -1.450881 -0.171939 0.108483
v -1.412565 -0.128309 -0.109745
v -1.187747 -0.192463 0.000000
v -1.412565 -0.128309 0.109745
v -1.373474 -0.085303 -0.111294
v -1.129111 -0.127955 0.000000
v -1.373474 -0.085303 0.111294
v -1.333575 -0.042877 -0.113132
v -1.069262 -0.064315 0.000000
v -1.333575 -0.042877 0.113132
v -1.292831 -0.000981 -0.115264
v -1.008146 -0.001471 0.000000
v -1.292831 -0.000981 0.115264
v -1.892607 -0.705665 -0.113445
v -1.924349 -0.652970 -0.111867
v -1.956689 -0.601072 -0.110533
v -1.989627 -0.549972 -0.109441
v -2.023164 -0.499671 -0.108592
v -2.057299 -0.450167 -0.107985
v -2.092033 -0.401461 -0.107621
v -2.127365 -0.353553 -0.107500
v -2.163296 -0.306444 -0.107621
v -2.199825 -0.260132 -0.107985
v -2.236953 -0.214618 -0.108592
v -2.274679 -0.169902 -0.109441
v -2.313004 -0.125985 -0.110533
v -2.351927 -0.082865 -0.111867
v -2.391449 -0.040543 -0.113445
v -1.907811 -1.058498 0.000000
v -1.955423 -0.979455 0.000000
v -2.003933 -0.901608 0.000000
v -2.053340 -0.824959 0.000000
v -2.103646 -0.749506 0.000000
v -2.154848 -0.675250 0.000000
v -2.206949 -0.602192 0.000000
v -2.259948 -0.530330 0.000000
v -2.313844 -0.459665 0.000000
v -2.368638 -0.390198 0.000000
v -2.424329 -0.321927 0.000000
v -2.480919 -0.254854 0.000000
v -2.538406 -0.188977 0.000000
v -2.596791 -0.124297 0.000000
v -2.656074 -0.060815 0.000000
v -1.892607 -0.705665 0.113445
v -1.924349 -0.652970 0.111867
v -1.956689 -0.601072 0.110533
v -1.989627 -0.549972 0.109441
v -2.023164 -0.499671 0.108592
v -2.057299 -0.450167 0.107985
v -2.092033 -0.401461 0.107621
v -2.127365 -0.353553 0.107500
v -2.163296 -0.306444 0.107621
v -2.199825 -0.260132 0.107985
v -2.236953 -0.214618 0.108592
v -2.274679 -0.169902 0.109441
v -2.313004 -0.125985 0.110533
v -2.351927 -0.082865 0.111867
v -2.391449 -0.040543 0.113445
v -1.332951 0.040543 0.113445
v -1.372473 0.082865 0.111867
v -1.411396 0.125985 0.110533
v -1.449721 0.169902 0.109441
v -1.487447 0.214618 0.108592
v -1.524575 0.260132 0.107985
v -1.561104 0.306444 0.107621
v -1.597035 0.353553 0.107500
v -1.632367 0.401461 0.107621
v -1.667101 0.450167 0.107985
v -1.701236 0.499671 0.108592
v -1.734773 0.549972 0.109441
v -1.767712 0.601072 0.110533
v -1.800051 0.652970 0.111867
v -1.831793 0.705665 0.113445
v -1.068326 0.060815 0.000000
v -1.127609 0.124297 0.000000
v -1.185994 0.188977 0.000000
v -1.243481 0.254854 0.000000
v -1.300071 0.321927 0.000000
v -1.355762 0.390198 0.000000
v -1.410556 0.459665 0.000000
v -1.464453 0.530330 0.000000
v -1.517451 0.602192 0.000000
v -1.569552 0.675250 0.000000
v -1.620755 0.749506 0.000000
v -1.671060 0.824959 0.000000
v -1.720467 0.901608 0.000000
v -1.768977 0.979455 0.000000
v -1.816589 1.058498 0.000000
v -1.332951 0.040543 -0.113445
v -1.372473 0.082865 -0.111867
v -1.411396 0.125985 -0.110533
v -1.449721 0.169902 -0.109441
v -1.487447 0.214618 -0.108592
v -1.524575 0.260132 -0.107985
v -1.561104 0.306444 -0.107621
v -1.597035 0.353553 -0.107500
v -1.632367 0.401461 -0.107621
v -1.667101 0.450167 -0.107985
v -1.701236 0.499671 -0.108592
v -1.734773 0.549972 -0.109441
v -1.767712 0.601072 -0.110533
v -1.800051 0.652970 -0.111867
v -1.831793 0.705665 -0.113445
v -1.861291 -0.653035 0.111400
v -1.893046 -0.601911 0.109899
v -1.925309 -0.551464 0.108629
v -1.958077 -0.501692 0.107590
v -1.991353 -0.452595 0.106781
v -2.025135 -0.404174 0.106204
v -2.059424 -0.356429 0.105858
v -2.094219 -0.309359 0.105742
v -2.129522 -0.262965 0.105858
v -2.165331 -0.217247 0.106204
v -2.201646 -0.172204 0.106781
v -2.238469 -0.127836 0.107590
v -2.275798 -0.084145 0.108629
v -2.313633 -0.041129 0.109899
v -2.351976 0.001212 0.111400
v -1.829602 -0.601357 0.109635
v -1.861404 -0.551642 0.108198
v -1.893628 -0.502490 0.106982
v -1.926273 -0.453900 0.105987
v -1.959340 -0.405872 0.105214
v -1.992830 -0.358407 0.104661
v -2.026741 -0.311505 0.104329
v -2.061074 -0.265165 0.104219
v -2.095829 -0.219388 0.104329
v -2.131006 -0.174173 0.104661
v -2.166604 -0.129521 0.105214
v -2.202625 -0.085431 0.105987
v -2.239067 -0.041903 0.106982
v -2.275932 0.001061 0.108198
v -2.313218 0.043464 0.109635
v -1.797513 -0.550596 0.108148
v -1.829401 -0.502135 0.106763
v -1.861631 -0.454131 0.105592
v -1.894205 -0.406585 0.104634
v -1.927121 -0.359495 0.103888
v -1.960381 -0.312863 0.103356
v -1.993983 -0.266688 0.103036
v -2.027928 -0.220971 0.102930
v -2.062216 -0.175711 0.103036
v -2.096848 -0.130907 0.103356
v -2.131821 -0.086562 0.103888
v -2.167138 -0.042673 0.104634
v -2.202798 0.000758 0.105592
v -2.238801 0.043732 0.106763
v -2.275147 0.086249 0.108148
v -1.764997 -0.500716 0.106934
v -1.797017 -0.453364 0.105592
v -1.829306 -0.406370 0.104456
v -1.861864 -0.359735 0.103527
v -1.894691 -0.313458 0.102804
v -1.927786 -0.267539 0.102288
v -1.961150 -0.221979 0.101978
v -1.994783 -0.176777 0.101875
v -2.028684 -0.131933 0.101978
v -2.062854 -0.087448 0.102288
v -2.097293 -0.043321 0.102804
v -2.132001 0.000448 0.103527
v -2.166977 0.043858 0.104456
v -2.202223 0.086910 0.105592
v -2.237737 0.129604 0.106934
v -1.732030 -0.451683 0.105993
v -1.764236 -0.405304 0.104683
v -1.796640 -0.359189 0.103574
v -1.829243 -0.313339 0.102667
v -1.862044 -0.267753 0.101962
v -1.895043 -0.222432 0.101458
v -1.928241 -0.177375 0.101155
v -1.961637 -0.132583 0.101055
v -1.995231 -0.088054 0.101155
v -2.029024 -0.043791 0.101458
v -2.063015 0.000208 0.101962
v -2.097204 0.043943 0.102667
v -2.131592 0.087413 0.103574
v -2.166178 0.130619 0.104683
v -2.200963 0.173561 0.105993
v -1.698586 -0.403467 0.105322
v -1.731038 -0.357933 0.104034
v -1.763620 -0.312573 0.102945
v -1.796333 -0.267388 0.102053
v -1.829176 -0.222376 0.101360
v -1.862151 -0.177540 0.100865
v -1.895256 -0.132877 0.100568
v -1.928491 -0.088388 0.100469
v -1.961858 -0.044074 0.100568
v -1.995355 0.000066 0.100865
v -2.028982 0.044031 0.101360
v -2.062741 0.087823 0.102053
v -2.096630 0.131440 0.102945
v -2.130650 0.174883 0.104034
v -2.164800 0.218152 0.105322
v -1.664644 -0.356036 0.104919
v -1.697407 -0.311227 0.103645
v -1.730234 -0.266505 0.102567
v -1.763127 -0.221870 0.101685
v -1.796084 -0.177321 0.100999
v -1.829106 -0.132859 0.100509
v -1.862194 -0.088483 0.100215
v -1.895346 -0.044194 0.100117
v -1.928563 0.000009 0.100215
v -1.961844 0.044125 0.100509
v -1.995191 0.088154 0.100999
v -2.028603 0.132098 0.101685
v -2.062079 0.175954 0.102567
v -2.095620 0.219724 0.103645
v -2.129227 0.263408 0.104919
v -1.630181 -0.309359 0.104785
v -1.663326 -0.265165 0.103516
v -1.696472 -0.220971 0.102441
v -1.729617 -0.176777 0.101562
v -1.762763 -0.132583 0.100879
v -1.795909 -0.088388 0.100391
v -1.829054 -0.044194 0.100098
v -1.862200 0.000000 0.100000
v -1.895346 0.044194 0.100098
v -1.928491 0.088388 0.100391
v -1.961637 0.132583 0.100879
v -1.994783 0.176777 0.101562
v -2.027928 0.220971 0.102441
v -2.061074 0.265165 0.103516
v -2.094219 0.309359 0.104785
v -1.595173 -0.263408 0.104919
v -1.628780 -0.219724 0.103645
v -1.662321 -0.175954 0.102567
v -1.695797 -0.132098 0.101685
v -1.729209 -0.088154 0.100999
v -1.762556 -0.044125 0.100509
v -1.795838 -0.000009 0.100215
v -1.829054 0.044194 0.100117
v -1.862206 0.088483 0.100215
v -1.895294 0.132859 0.100509
v -1.928316 0.177321 0.100999
v -1.961273 0.221870 0.101685
v -1.994166 0.266505 0.102567
v -2.026993 0.311227 0.103645
v -2.059756 0.356036 0.104919
v -1.559600 -0.218152 0.105322
v -1.593750 -0.174883 0.104034
v -1.627770 -0.131440 0.102945
v -1.661659 -0.087823 0.102053
v -1.695418 -0.044031 0.101360
v -1.729045 -0.000066 0.100865
v -1.762542 0.044074 0.100568
v -1.795909 0.088388 0.100469
v -1.829144 0.132877 0.100568
v -1.862249 0.177540 0.100865
v -1.895224 0.222376 0.101360
v -1.928067 0.267388 0.102053
v -1.960780 0.312573 0.102945
v -1.993362 0.357933 0.104034
v -2.025814 0.403467 0.105322
v -1.523438 -0.173561 0.105993
v -1.558222 -0.130619 0.104683
v -1.592808 -0.087413 0.103574
v -1.627196 -0.043943 0.102667
v -1.661385 -0.000208 0.101962
v -1.695376 0.043791 0.101458
v -1.729169 0.088054 0.101155
v -1.762763 0.132583 0.101055
v -1.796159 0.177375 0.101155
v -1.829357 0.222432 0.101458
v -1.862356 0.267753 0.101962
v -1.895157 0.313339 0.102667
v -1.927760 0.359189 0.103574
v -1.960164 0.405304 0.104683
v -1.992370 0.451683 0.105993
v -1.486663 -0.129604 0.106934
v -1.522177 -0.086910 0.105592
v -1.557423 -0.043858 0.104456
v -1.592399 -0.000448 0.103527
v -1.627107 0.043321 0.102804
v -1.661546 0.087448 0.102288
v -1.695716 0.131933 0.101978
v -1.729617 0.176777 0.101875
v -1.763250 0.221979 0.101978
v -1.796614 0.267539 0.102288
v -1.829709 0.313458 0.102804
v -1.862536 0.359735 0.103527
v -1.895094 0.406370 0.104456
v -1.927383 0.453364 0.105592
v -1.959403 0.500716 0.106934
v -1.449253 -0.086249 0.108148
v -1.485599 -0.043732 0.106763
v -1.521602 -0.000758 0.105592
v -1.557262 0.042673 0.104634
v -1.592579 0.086562 0.103888
v -1.627553 0.130907 0.103356
v -1.662184 0.175711 0.103036
v -1.696472 0.220971 0.102930
v -1.730417 0.266688 0.103036
v -1.764019 0.312863 0.103356
v -1.797279 0.359495 0.103888
v -1.830195 0.406585 0.104634
v -1.862769 0.454131 0.105592
v -1.894999 0.502135 0.106763
v -1.926887 0.550596 0.108148
v -1.411182 -0.043464 0.109635
v -1.448468 -0.001061 0.108198
v -1.485333 0.041903 0.106982
v -1.521775 0.085431 0.105987
v -1.557796 0.129521 0.105214
v -1.593395 0.174173 0.104661
v -1.628571 0.219388 0.104329
v -1.663326 0.265165 0.104219
v -1.697659 0.311505 0.104329
v -1.731570 0.358407 0.104661
v -1.765060 0.405872 0.105214
v -1.798127 0.453900 0.105987
v -1.830772 0.502490 0.106982
v -1.862996 0.551642 0.108198
v -1.894798 0.601357 0.109635
v -1.372424 -0.001212 0.111400
v -1.410767 0.041129 0.109899
v -1.448602 0.084145 0.108629
v -1.485931 0.127836 0.107590
v -1.522754 0.172204 0.106781
v -1.559069 0.217247 0.106204
v -1.594878 0.262965 0.105858
v -1.630181 0.309359 0.105742
v -1.664976 0.356429 0.105858
v -1.699265 0.404174 0.106204
v -1.733047 0.452595 0.106781
v -1.766323 0.501692 0.107590
v -1.799091 0.551464 0.108629
v -1.831354 0.601911 0.109899
v -1.863109 0.653035 0.111400
v -2.351976 0.001212 -0.111400
v -2.313633 -0.041129 -0.109899
v -2.275798 -0.084145 -0.108629
v -2.238469 -0.127836 -0.107590
v -2.201646 -0.172204 -0.106781
v -2.165331 -0.217247 -0.106204
v -2.129522 -0.262965 -0.105858
v -2.094219 -0.309359 -0.105742
v -2.059424 -0.356429 -0.105858
v -2.025135 -0.404174 -0.106204
v -1.991353 -0.452595 -0.106781
v -1.958077 -0.501692 -0.107590
v -1.925309 -0.551464 -0.108629
v -1.893046 -0.601911 -0.109899
v -1.861291 -0.653035 -0.111400
v -2.313218 0.043464 -0.109635
v -2.275932 0.001061 -0.108198
v -2.239067 -0.041903 -0.106982
v -2.202625 -0.085431 -0.105987
v -2.166604 -0.129521 -0.105214
v -2.131006 -0.174173 -0.104661
v -2.095829 -0.219388 -0.104329
v -2.061074 -0.265165 -0.104219
v -2.026741 -0.311505 -0.104329
v -1.992830 -0.358407 -0.104661
v -1.959340 -0.405872 -0.105214
v -1.926273 -0.453900 -0.105987
v -1.893628 -0.502490 -0.106982
v -1.861404 -0.551642 -0.108198
v -1.829602 -0.601357 -0.109635
v -2.275147 0.086249 -0.108148
v -2.238801 0.043732 -0.106763
v -2.202798 0.000758 -0.105592
v -2.167138 -0.042673 -0.104634
v -2.131821 -0.086562 -0.103888
v -2.096848 -0.130907 -0.103356
v -2.062216 -0.175711 -0.103036
v -2.027928 -0.220971 -0.102930
v -1.993983 -0.266688 -0.103036
v -1.960381 -0.312863 -0.103356
v -1.927121 -0.359495 -0.103888
v -1.894205 -0.406585 -0.104634
v -1.861631 -0.454131 -0.105592
v -1.829401 -0.502135 -0.106763
v -1.797513 -0.550596 -0.108148
v -2.237737 0.129604 -0.106934
v -2.202223 0.086910 -0.105592
v -2.166977 0.043858 -0.104456
v -2.132001 0.000448 -0.103527
v -2.097293 -0.043321 -0.102804
v -2.062854 -0.087448 -0.102288
v -2.028684 -0.131933 -0.101978
v -1.994783 -0.176777 -0.101875
v -1.961150 -0.221979 -0.101978
v -1.927786 -0.267539 -0.102288
v -1.894691 -0.313458 -0.102804
v -1.861864 -0.359735 -0.103527
v -1.829306 -0.406370 -0.104456
v -1.797017 -0.453364 -0.105592
v -1.764997 -0.500716 -0.106934
v -2.200963 0.173561 -0.105993
v -2.166178 0.130619 -0.104683
v -2.131592 0.087413 -0.103574
v -2.097204 0.043943 -0.102667
v -2.063015 0.000208 -0.101962
v -2.029024 -0.043791 -0.101458
v -1.995231 -0.088054 -0.101155
v -1.961637 -0.132583 -0.101055
v -1.928241 -0.177375 -0.101155
v -1.895043 -0.222432 -0.101458
v -1.862044 -0.267753 -0.101962
v -1.829243 -0.313339 -0.102667
v -1.796640 -0.359189 -0.103574
v -1.764236 -0.405304 -0.104683
v -1.732030 -0.451683 -0.105993
v -2.164800 0.218152 -0.105322
v -2.130650 0.174883 -0.104034
v -2.096630 0.131440 -0.102945
v -2.062741 0.087823 -0.102053
v -2.028982 0.044031 -0.101360
v -1.995355 0.000066 -0.100865
v -1.961858 -0.044074 -0.100568
v -1.928491 -0.088388 -0.100469
v -1.895256 -0.132877 -0.100568
v -1.862151 -0.177540 -0.100865
v -1.829176 -0.222376 -0.101360
v -1.796333 -0.267388 -0.102053
v -1.763620 -0.312573 -0.102945
v -1.731038 -0.357933 -0.104034
v -1.698586 -0.403467 -0.105322
v -2.129227 0.263408 -0.104919
v -2.095620 0.219724 -0.103645
v -2.062079 0.175954 -0.102567
v -2.028603 0.132098 -0.101685
v -1.995191 0.088154 -0.100999
v -1.961844 0.044125 -0.100509
v -1.928563 0.000009 -0.100215
v -1.895346 -0.044194 -0.100117
v -1.862194 -0.088483 -0.100215
v -1.829106 -0.132859 -0.100509
v -1.796084 -0.177321 -0.100999
v -1.763127 -0.221870 -0.101685
v -1.730234 -0.266505 -0.102567
v -1.697407 -0.311227 -0.103645
v -1.664644 -0.356036 -0.104919
v -2.094219 0.309359 -0.104785
v -2.061074 0.265165 -0.103516
v -2.027928 0.220971 -0.102441
v -1.994783 0.176777 -0.101562
v -1.961637 0.132583 -0.100879
v -1.928491 0.088388 -0.100391
v -1.895346 0.044194 -0.100098
v -1.862200 0.000000 -0.100000
v -1.829054 -0.044194 -0.100098
v -1.795909 -0.088388 -0.100391
v -1.762763 -0.132583 -0.100879
v -1.729617 -0.176777 -0.101562
v -1.696472 -0.220971 -0.102441
v -1.663326 -0.265165 -0.103516
v -1.630181 -0.309359 -0.104785
v -2.059756 0.356036 -0.104919
v -2.026993 0.311227 -0.103645
v -1.994166 0.266505 -0.102567
v -1.961273 0.221870 -0.101685
v -1.928316 0.177321 -0.100999
v -1.895294 0.132859 -0.100509
v -1.862206 0.088483 -0.100215
v -1.829054 0.044194 -0.100117
v -1.795838 -0.000009 -0.100215
v -1.762556 -0.044125 -0.100509
v -1.729209 -0.088154 -0.100999
v -1.695797 -0.132098 -0.101685
v -1.662321 -0.175954 -0.102567
v -1.628780 -0.219724 -0.103645
v -1.595173 -0.263408 -0.104919
v -2.025814 0.403467 -0.105322
v -1.993362 0.357933 -0.104034
v -1.960780 0.312573 -0.102945
v -1.928067 0.267388 -0.102053
v -1.895224 0.222376 -0.101360
v -1.862249 0.177540 -0.100865
v -1.829144 0.132877 -0.100568
v -1.795909 0.088388 -0.100469
v -1.762542 0.044074 -0.100568
v -1.729045 -0.000066 -0.100865
v -1.695418 -0.044031 -0.101360
v -1.661659 -0.087823 -0.102053
v -1.627770 -0.131440 -0.102945
v -1.593750 -0.174883 -0.104034
v -1.559600 -0.218152 -0.105322
v -1.992370 0.451683 -0.105993
v -1.960164 0.405304 -0.104683
v -1.927760 0.359189 -0.103574
v -1.895157 0.313339 -0.102667
v -1.862356 0.267753 -0.101962
v -1.829357 0.222432 -0.101458
v -1.796159 0.177375 -0.101155
v -1.762763 0.132583 -0.101055
v -1.729169 0.088054 -0.101155
v -1.695376 0.043791 -0.101458
v -1.661385 -0.000208 -0.101962
v -1.627196 -0.043943 -0.102667
v -1.592808 -0.087413 -0.103574
v -1.558222 -0.130619 -0.104683
v -1.523438 -0.173561 -0.105993
v -1.959403 0.500716 -0.106934
v -1.927383 0.453364 -0.105592
v -1.895094 0.406370 -0.104456
v -1.862536 0.359735 -0.103527
v -1.829709 0.313458 -0.102804
v -1.796614 0.267539 -0.102288
v -1.763250 0.221979 -0.101978
v -1.729617 0.176777 -0.101875
v -1.695716 0.131933 -0.101978
v -1.661546 0.087448 -0.102288
v -1.627107 0.043321 -0.102804
v -1.592399 -0.000448 -0.103527
v -1.557423 -0.043858 -0.104456
v -1.522177 -0.086910 -0.105592
v -1.486663 -0.129604 -0.106934
v -1.926887 0.550596 -0.108148
v -1.894999 0.502135 -0.106763
v -1.862769 0.454131 -0.105592
v -1.830195 0.406585 -0.104634
v -1.797279 0.359495 -0.103888
v -1.764019 0.312863 -0.103356
v -1.730417 0.266688 -0.103036
v -1.696472 0.220971 -0.102930
v -1.662184 0.175711 -0.103036
v -1.627553 0.130907 -0.103356
v -1.592579 0.086562 -0.103888
v -1.557262 0.042673 -0.104634
v -1.521602 -0.000758 -0.105592
v -1.485599 -0.043732 -0.106763
v -1.449253 -0.086249 -0.108148
v -1.894798 0.601357 -0.109635
v -1.862996 0.551642 -0.108198
v -1.830772 0.502490 -0.106982
v -1.798127 0.453900 -0.105987
v -1.765060 0.405872 -0.105214
v -1.731570 0.358407 -0.104661
v -1.697659 0.311505 -0.104329
v -1.663326 0.265165 -0.104219
v -1.628571 0.219388 -0.104329
v -1.593395 0.174173 -0.104661
v -1.557796 0.129521 -0.105214
v -1.521775 0.085431 -0.105987
v -1.485333 0.041903 -0.106982
v -1.448468 -0.001061 -0.108198
v -1.411182 -0.043464 -0.109635
v -1.863109 0.653035 -0.111400
v -1.831354 0.601911 -0.109899
v -1.799091 0.551464 -0.108629
v -1.766323 0.501692 -0.107590
v -1.733047 0.452595 -0.106781
v -1.699265 0.404174 -0.106204
v -1.664976 0.356429 -0.105858
v -1.630181 0.309359 -0.105742
v -1.594878 0.262965 -0.105858
v -1.559069 0.217247 -0.106204
v -1.522754 0.172204 -0.106781
v -1.485931 0.127836 -0.107590
v -1.448602 0.084145 -0.108629
v -1.410767 0.041129 -0.109899
v -1.372424 -0.001212 -0.111400
vt 0.000000 1.000000
vt 0.000000 0.937500
vt 0.500000 0.937500
vt 0.500000 1.000000
vt 1.000000 0.937500
vt 1.000000 1.000000
vt 0.000000 0.875000
vt 0.500000 0.875000
vt 1.000000 0.875000
vt 0.000000 0.812500
vt 0.500000 0.812500
vt 1.000000 0.812500
vt 0.000000 0.750000
vt 0.500000 0.750000
vt 1.000000 0.750000
vt 0.000000 0.687500
vt 0.500000 0.687500
vt 1.000000 0.687500
vt 0.000000 0.625000
vt 0.500000 0.625000
vt 1.000000 0.625000
vt 0.000000 0.562500
vt 0.500000 0.562500
vt 1.000000 0.562500
vt 0.000000 0.500000
vt 0.500000 0.500000
vt 1.000000 0.500000
vt 0.000000 0.437500
vt 0.500000 0.437500
vt 1.000000 0.437500
vt 0.000000 0.375000
vt 0.500000 0.375000
vt 1.000000 0.375000
vt 0.000000 0.312500
vt 0.500000 0.312500
vt 1.000000 0.312500
vt 0.000000 0.250000
vt 0.500000 0.250000
vt 1.000000 0.250000
vt 0.000000 0.187500
vt 0.500000 0.187500
vt 1.000000 0.187500
vt 0.000000 0.125000
vt 0.500000 0.125000
vt 1.000000 0.125000
vt 0.000000 0.062500
vt 0.500000 0.062500
vt 1.000000 0.062500
vt 0.000000 0.000000
vt 0.500000 0.000000
vt 1.000000 0.000000
vt 0.062500 0.500000
vt 0.062500 1.000000
vt 0.125000 0.500000
vt 0.125000 1.000000
vt 0.187500 0.500000
vt 0.187500 1.000000
vt 0.250000 0.500000
vt 0.250000 1.000000
vt 0.312500 0.500000
vt 0.312500 1.000000
vt 0.375000 0.500000
vt 0.375000 1.000000
vt 0.437500 0.500000
vt 0.437500 1.000000
vt 0.562500 0.500000
vt 0.562500 1.000000
vt 0.625000 0.500000
vt 0.625000 1.000000
vt 0.687500 0.500000
vt 0.687500 1.000000
vt 0.750000 0.500000
vt 0.750000 1.000000
vt 0.812500 0.500000
vt 0.812500 1.000000
vt 0.875000 0.500000
vt 0.875000 1.000000
vt 0.937500 0.500000
vt 0.937500 1.000000
vt 0.062500 0.000000
vt 0.125000 0.000000
vt 0.187500 0.000000
vt 0.250000 0.000000
vt 0.312500 0.000000
vt 0.375000 0.000000
vt 0.437500 0.000000
vt 0.562500 0.000000
vt 0.625000 0.000000
vt 0.687500 0.000000
vt 0.750000 0.000000
vt 0.812500 0.000000
vt 0.875000 0.000000
vt 0.937500 0.000000
vt 0.062500 0.937500
vt 0.125000 0.937500
vt 0.187500 0.937500
vt 0.250000 0.937500
vt 0.312500 0.937500
vt 0.375000 0.937500
vt 0.437500 0.937500
vt 0.562500 0.937500
vt 0.625000 0.937500
vt 0.687500 0.937500
vt 0.750000 0.937500
vt 0.812500 0.937500
vt 0.875000 0.937500
vt 0.937500 0.937500
vt 0.062500 0.875000
vt 0.125000 0.875000
vt 0.187500 0.875000
vt 0.250000 0.875000
vt 0.312500 0.875000
vt 0.375000 0.875000
vt 0.437500 0.875000
vt 0.562500 0.875000
vt 0.625000 0.875000
vt 0.687500 0.875000
vt 0.750000 0.875000
vt 0.812500 0.875000
vt 0.875000 0.875000
vt 0.937500 0.875000
vt 0.062500 0.812500
vt 0.125000 0.812500
vt 0.187500 0.812500
vt 0.250000 0.812500
vt 0.312500 0.812500
vt 0.375000 0.812500
vt 0.437500 0.812500
vt 0.562500 0.812500
vt 0.625000 0.812500
vt 0.687500 0.812500
vt 0.750000 0.812500
vt 0.812500 0.812500
vt 0.875000 0.812500
vt 0.937500 0.812500
vt 0.062500 0.750000
vt 0.125000 0.750000
vt 0.187500 0.750000
vt 0.250000 0.750000
vt 0.312500 0.750000
vt 0.375000 0.750000
vt 0.437500 0.750000
vt 0.562500 0.750000
vt 0.625000 0.750000
vt 0.687500 0.750000
vt 0.750000 0.750000
vt 0.812500 0.750000
vt 0.875000 0.750000
vt 0.937500 0.750000
vt 0.062500 0.687500
vt 0.125000 0.687500
vt 0.187500 0.687500
vt 0.250000 0.687500
vt 0.312500 0.687500
vt 0.375000 0.687500
vt 0.437500 0.687500
vt 0.562500 0.687500
vt 0.625000 0.687500
vt 0.687500 0.687500
vt 0.750000 0.687500
vt 0.812500 0.687500
vt 0.875000 0.687500
vt 0.937500 0.687500
vt 0.062500 0.625000
vt 0.125000 0.625000
vt 0.187500 0.625000
vt 0.250000 0.625000
vt 0.312500 0.625000
vt 0.375000 0.625000
vt 0.437500 0.625000
vt 0.562500 0.625000
vt 0.625000 0.625000
vt 0.687500 0.625000
vt 0.750000 0.625000
vt 0.812500 0.625000
vt 0.875000 0.625000
vt 0.937500 0.625000
vt 0.062500 0.562500
vt 0.125000 0.562500
vt 0.187500 0.562500
vt 0.250000 0.562500
vt 0.312500 0.562500
vt 0.375000 0.562500
vt 0.437500 0.562500
vt 0.562500 0.562500
vt 0.625000 0.562500
vt 0.687500 0.562500
vt 0.750000 0.562500
vt 0.812500 0.562500
vt 0.875000 0.562500
vt 0.937500 0.562500
vt 0.062500 0.437500
vt 0.125000 0.437500
vt 0.187500 0.437500
vt 0.250000 0.437500
vt 0.312500 0.437500
vt 0.375000 0.437500
vt 0.437500 0.437500
vt 0.562500 0.437500
vt 0.625000 0.437500
vt 0.687500 0.437500
vt 0.750000 0.437500
vt 0.812500 0.437500
vt 0.875000 0.437500
vt 0.937500 0.437500
vt 0.062500 0.375000
vt 0.125000 0.375000
vt 0.187500 0.375000
vt 0.250000 0.375000
vt 0.312500 0.375000
vt 0.375000 0.375000
vt 0.437500 0.375000
vt 0.562500 0.375000
vt 0.625000 0.375000
vt 0.687500 0.375000
vt 0.750000 0.375000
vt 0.812500 0.375000
vt 0.875000 0.375000
vt 0.937500 0.375000
vt 0.062500 0.312500
vt 0.125000 0.312500
vt 0.187500 0.312500
vt 0.250000 0.312500
vt 0.312500 0.312500
vt 0.375000 0.312500
vt 0.437500 0.312500
vt 0.562500 0.312500
vt 0.625000 0.312500
vt 0.687500 0.312500
vt 0.750000 0.312500
vt 0.812500 0.312500
vt 0.875000 0.312500
vt 0.937500 0.312500
vt 0.062500 0.250000
vt 0.125000 0.250000
vt 0.187500 0.250000
vt 0.250000 0.250000
vt 0.312500 0.250000
vt 0.375000 0.250000
vt 0.437500 0.250000
vt 0.562500 0.250000
vt 0.625000 0.250000
vt 0.687500 0.250000
vt 0.750000 0.250000
vt 0.812500 0.250000
vt 0.875000 0.250000
vt 0.937500 0.250000
vt 0.062500 0.187500
vt 0.125000 0.187500
vt 0.187500 0.187500
vt 0.250000 0.187500
vt 0.312500 0.187500
vt 0.375000 0.187500
vt 0.437500 0.187500
vt 0.562500 0.187500
vt 0.625000 0.187500
vt 0.687500 0.187500
vt 0.750000 0.187500
vt 0.812500 0.187500
vt 0.875000 0.187500
vt 0.937500 0.187500
vt 0.062500 0.125000
vt 0.125000 0.125000
vt 0.187500 0.125000
vt 0.250000 0.125000
vt 0.312500 0.125000
vt 0.375000 0.125000
vt 0.437500 0.125000
vt 0.562500 0.125000
vt 0.625000 0.125000
vt 0.687500 0.125000
vt 0.750000 0.125000
vt 0.812500 0.125000
vt 0.875000 0.125000
vt 0.937500 0.125000
vt 0.062500 0.062500
vt 0.125000 0.062500
vt 0.187500 0.062500
vt 0.250000 0.062500
vt 0.312500 0.062500
vt 0.375000 0.062500
vt 0.437500 0.062500
vt 0.562500 0.062500
vt 0.625000 0.062500
vt 0.687500 0.062500
vt 0.750000 0.062500
vt 0.812500 0.062500
vt 0.875000 0.062500
vt 0.937500 0.062500
vn -0.800000 0.600000 0.000000
vn 0.800000 -0.600000 0.000000
vn 0.800000 -0.600000 0.000100
vn -0.800000 -0.600000 0.000000
vn 0.800000 0.600000 -0.000000
vn -0.000000 -0.000000 1.000000
vn 0.000000 0.000000 -1.000000
usemtl Standard2
s 1
f 1/1/1 4/2/1 5/3/1 2/4/1
f 2/4/1 5/3/1 6/5/1 3/6/1
f 4/2/1 7/7/1 8/8/1 5/3/1
f 5/3/1 8/8/1 9/9/1 6/5/1
f 7/7/1 10/10/1 11/11/1 8/8/1
f 8/8/1 11/11/1 12/12/1 9/9/1
f 10/10/1 13/13/1 14/14/1 11/11/1
f 11/11/1 14/14/1 15/15/1 12/12/1
f 13/13/1 16/16/1 17/17/1 14/14/1
f 14/14/1 17/17/1 18/18/1 15/15/1
f 16/16/1 19/19/1 20/20/1 17/17/1
f 17/17/1 20/20/1 21/21/1 18/18/1
f 19/19/1 22/22/1 23/23/1 20/20/1
f 20/20/1 23/23/1 24/24/1 21/21/1
f 22/22/1 25/25/1 26/26/1 23/23/1
f 23/23/1 26/26/1 27/27/1 24/24/1
f 25/25/1 28/28/1 29/29/1 26/26/1
f 26/26/1 29/29/1 30/30/1 27/27/1
f 28/28/1 31/31/1 32/32/1 29/29/1
f 29/29/1 32/32/1 33/33/1 30/30/1
f 31/31/1 34/34/1 35/35/1 32/32/1
f 32/32/1 35/35/1 36/36/1 33/33/1
f 34/34/1 37/37/1 38/38/1 35/35/1
f 35/35/1 38/38/1 39/39/1 36/36/1
f 37/37/1 40/40/1 41/41/1 38/38/1
f 38/38/1 41/41/1 42/42/1 39/39/1
f 40/40/1 43/43/1 44/44/1 41/41/1
f 41/41/1 44/44/1 45/45/1 42/42/1
f 43/43/1 46/46/1 47/47/1 44/44/1
f 44/44/1 47/47/1 48/48/1 45/45/1
f 46/46/1 49/49/1 50/50/1 47/47/1
f 47/47/1 50/50/1 51/51/1 48/48/1
f 52/1/2 55/2/2 56/3/2 53/4/2
f 53/4/2 56/3/2 57/5/2 54/6/2
f 55/2/2 58/7/2 59/8/2 56/3/2
f 56/3/2 59/8/2 60/9/2 57/5/2
f 58/7/2 61/10/2 62/11/2 59/8/2
f 59/8/2 62/11/2 63/12/2 60/9/2
f 61/10/2 64/13/2 65/14/2 62/11/2
f 62/11/2 65/14/2 66/15/2 63/12/2
f 64/13/2 67/16/2 68/17/2 65/14/2
f 65/14/2 68/17/2 69/18/2 66/15/2
f 67/16/2 70/19/2 71/20/2 68/17/2
f 68/17/2 71/20/2 72/21/2 69/18/2
f 70/19/2 73/22/2 74/23/2 71/20/2
f 71/20/2 74/23/2 75/24/2 72/21/2
f 73/22/2 76/25/2 77/26/2 74/23/2
f 74/23/2 77/26/2 78/27/2 75/24/2
f 76/25/2 79/28/2 80/29/2 77/26/2
f 77/26/2 80/29/2 81/30/2 78/27/2
f 79/28/2 82/31/2 83/32/2 80/29/2
f 80/29/2 83/32/2 84/33/2 81/30/2
f 82/31/2 85/34/2 86/35/2 83/32/2
f 83/32/2 86/35/2 87/36/2 84/33/2
f 85/34/2 88/37/2 89/38/2 86/35/2
f 86/35/2 89/38/2 90/39/2 87/36/2
f 88/37/2 91/40/2 92/41/2 89/38/2
f 89/38/2 92/41/2 93/42/2 90/39/2
f 91/40/2 94/43/2 95/44/2 92/41/2
f 92/41/2 95/44/2 96/45/2 93/42/2
f 94/43/2 97/46/2 98/47/3 95/44/2
f 95/44/2 98/47/3 99/48/2 96/45/2
f 97/46/2 100/49/2 101/50/2 98/47/3
f 98/47/3 101/50/2 102/51/2 99/48/2
f 52/1/4 53/25/4 118/52/4 103/53/4
f 103/53/4 118/52/4 119/54/4 104/55/4
f 104/55/4 119/54/4 120/56/4 105/57/4
f 105/57/4 120/56/4 121/58/4 106/59/4
f 106/59/4 121/58/4 122/60/4 107/61/4
f 107/61/4 122/60/4 123/62/4 108/63/4
f 108/63/4 123/62/4 124/64/4 109/65/4
f 109/65/4 124/64/4 125/26/4 110/4/4
f 110/4/4 125/26/4 126/66/4 111/67/4
f 111/67/4 126/66/4 127/68/4 112/69/4
f 112/69/4 127/68/4 128/70/4 113/71/4
f 113/71/4 128/70/4 129/72/4 114/73/4
f 114/73/4 129/72/4 130/74/4 115/75/4
f 115/75/4 130/74/4 131/76/4 116/77/4
f 116/77/4 131/76/4 132/78/4 117/79/4
f 117/79/4 132/78/4 2/27/4 3/6/4
f 53/25/4 54/49/4 133/80/4 118/52/4
f 118/52/4 133/80/4 134/81/4 119/54/4
f 119/54/4 134/81/4 135/82/4 120/56/4
f 120/56/4 135/82/4 136/83/4 121/58/4
f 121/58/4 136/83/4 137/84/4 122/60/4
f 122/60/4 137/84/4 138/85/4 123/62/4
f 123/62/4 138/85/4 139/86/4 124/64/4
f 124/64/4 139/86/4 140/50/4 125/26/4
f 125/26/4 140/50/4 141/87/4 126/66/4
f 126/66/4 141/87/4 142/88/4 127/68/4
f 127/68/4 142/88/4 143/89/4 128/70/4
f 128/70/4 143/89/4 144/90/4 129/72/4
f 129/72/4 144/90/4 145/91/4 130/74/4
f 130/74/4 145/91/4 146/92/4 131/76/4
f 131/76/4 146/92/4 147/93/4 132/78/4
f 132/78/4 147/93/4 1/51/4 2/27/4
f 102/1/5 101/25/5 163/52/5 148/53/5
f 148/53/5 163/52/5 164/54/5 149/55/5
f 149/55/5 164/54/5 165/56/5 150/57/5
f 150/57/5 165/56/5 166/58/5 151/59/5
f 151/59/5 166/58/5 167/60/5 152/61/5
f 152/61/5 167/60/5 168/62/5 153/63/5
f 153/63/5 168/62/5 169/64/5 154/65/5
f 154/65/5 169/64/5 170/26/5 155/4/5
f 155/4/5 170/26/5 171/66/5 156/67/5
f 156/67/5 171/66/5 172/68/5 157/69/5
f 157/69/5 172/68/5 173/70/5 158/71/5
f 158/71/5 173/70/5 174/72/5 159/73/5
f 159/73/5 174/72/5 175/74/5 160/75/5
f 160/75/5 175/74/5 176/76/5 161/77/5
f 161/77/5 176/76/5 177/78/5 162/79/5
f 162/79/5 177/78/5 50/27/5 49/6/5
f 101/25/5 100/49/5 178/80/5 163/52/5
f 163/52/5 178/80/5 179/81/5 164/54/5
f 164/54/5 179/81/5 180/82/5 165/56/5
f 165/56/5 180/82/5 181/83/5 166/58/5
f 166/58/5 181/83/5 182/84/5 167/60/5
f 167/60/5 182/84/5 183/85/5 168/62/5
f 168/62/5 183/85/5 184/86/5 169/64/5
f 169/64/5 184/86/5 185/50/5 170/26/5
f 170/26/5 185/50/5 186/87/5 171/66/5
f 171/66/5 186/87/5 187/88/5 172/68/5
f 172/68/5 187/88/5 188/89/5 173/70/5
f 173/70/5 188/89/5 189/90/5 174/72/5
f 174/72/5 189/90/5 190/91/5 175/74/5
f 175/74/5 190/91/5 191/92/5 176/76/5
f 176/76/5 191/92/5 192/93/5 177/78/5
f 177/78/5 192/93/5 51/51/5 50/27/5
f 54/1/6 57/2/6 193/94/6 133/53/6
f 133/53/6 193/94/6 194/95/6 134/55/6
f 134/55/6 194/95/6 195/96/6 135/57/6
f 135/57/6 195/96/6 196/97/6 136/59/6
f 136/59/6 196/97/6 197/98/6 137/61/6
f 137/61/6 197/98/6 198/99/6 138/63/6
f 138/63/6 198/99/6 199/100/6 139/65/6
f 139/65/6 199/100/6 200/3/6 140/4/6
f 140/4/6 200/3/6 201/101/6 141/67/6
f 141/67/6 201/101/6 202/102/6 142/69/6
f 142/69/6 202/102/6 203/103/6 143/71/6
f 143/71/6 203/103/6 204/104/6 144/73/6
f 144/73/6 204/104/6 205/105/6 145/75/6
f 145/75/6 205/105/6 206/106/6 146/77/6
f 146/77/6 206/106/6 207/107/6 147/79/6
f 147/79/6 207/107/6 4/5/6 1/6/6
f 57/2/6 60/7/6 208/108/6 193/94/6
f 193/94/6 208/108/6 209/109/6 194/95/6
f 194/95/6 209/109/6 210/110/6 195/96/6
f 195/96/6 210/110/6 211/111/6 196/97/6
f 196/97/6 211/111/6 212/112/6 197/98/6
f 197/98/6 212/112/6 213/113/6 198/99/6
f 198/99/6 213/113/6 214/114/6 199/100/6
f 199/100/6 214/114/6 215/8/6 200/3/6
f 200/3/6 215/8/6 216/115/6 201/101/6
f 201/101/6 216/115/6 217/116/6 202/102/6
f 202/102/6 217/116/6 218/117/6 203/103/6
f 203/103/6 218/117/6 219/118/6 204/104/6
f 204/104/6 219/118/6 220/119/6 205/105/6
f 205/105/6 220/119/6 221/120/6 206/106/6
f 206/106/6 221/120/6 222/121/6 207/107/6
f 207/107/6 222/121/6 7/9/6 4/5/6
f 60/7/6 63/10/6 223/122/6 208/108/6
f 208/108/6 223/122/6 224/123/6 209/109/6
f 209/109/6 224/123/6 225/124/6 210/110/6
f 210/110/6 225/124/6 226/125/6 211/111/6
f 211/111/6 226/125/6 227/126/6 212/112/6
f 212/112/6 227/126/6 228/127/6 213/113/6
f 213/113/6 228/127/6 229/128/6 214/114/6
f 214/114/6 229/128/6 230/11/6 215/8/6
f 215/8/6 230/11/6 231/129/6 216/115/6
f 216/115/6 231/129/6 232/130/6 217/116/6
f 217/116/6 232/130/6 233/131/6 218/117/6
f 218/117/6 233/131/6 234/132/6 219/118/6
f 219/118/6 234/132/6 235/133/6 220/119/6
f 220/119/6 235/133/6 236/134/6 221/120/6
f 221/120/6 236/134/6 237/135/6 222/121/6
f 222/121/6 237/135/6 10/12/6 7/9/6
f 63/10/6 66/13/6 238/136/6 223/122/6
f 223/122/6 238/136/6 239/137/6 224/123/6
f 224/123/6 239/137/6 240/138/6 225/124/6
f 225/124/6 240/138/6 241/139/6 226/125/6
f 226/125/6 241/139/6 242/140/6 227/126/6
f 227/126/6 242/140/6 243/141/6 228/127/6
f 228/127/6 243/141/6 244/142/6 229/128/6
f 229/128/6 244/142/6 245/14/6 230/11/6
f 230/11/6 245/14/6 246/143/6 231/129/6
f 231/129/6 246/143/6 247/144/6 232/130/6
f 232/130/6 247/144/6 248/145/6 233/131/6
f 233/131/6 248/145/6 249/146/6 234/132/6
f 234/132/6 249/146/6 250/147/6 235/133/6
f 235/133/6 250/147/6 251/148/6 236/134/6
f 236/134/6 251/148/6 252/149/6 237/135/6
f 237/135/6 252/149/6 13/15/6 10/12/6
f 66/13/6 69/16/6 253/150/6 238/136/6
f 238/136/6 253/150/6 254/151/6 239/137/6
f 239/137/6 254/151/6 255/152/6 240/138/6
f 240/138/6 255/152/6 256/153/6 241/139/6
f 241/139/6 256/153/6 257/154/6 242/140/6
f 242/140/6 257/154/6 258/155/6 243/141/6
f 243/141/6 258/155/6 259/156/6 244/142/6
f 244/142/6 259/156/6 260/17/6 245/14/6
f 245/14/6 260/17/6 261/157/6 246/143/6
f 246/143/6 261/157/6 262/158/6 247/144/6
f 247/144/6 262/158/6 263/159/6 248/145/6
f 248/145/6 263/159/6 264/160/6 249/146/6
f 249/146/6 264/160/6 265/161/6 250/147/6
f 250/147/6 265/161/6 266/162/6 251/148/6
f 251/148/6 266/162/6 267/163/6 252/149/6
f 252/149/6 267/163/6 16/18/6 13/15/6
f 69/16/6 72/19/6 268/164/6 253/150/6
f 253/150/6 268/164/6 269/165/6 254/151/6
f 254/151/6 269/165/6 270/166/6 255/152/6
f 255/152/6 270/166/6 271/167/6 256/153/6
f 256/153/6 271/167/6 272/168/6 257/154/6
f 257/154/6 272/168/6 273/169/6 258/155/6
f 258/155/6 273/169/6 274/170/6 259/156/6
f 259/156/6 274/170/6 275/20/6 260/17/6
f 260/17/6 275/20/6 276/171/6 261/157/6
f 261/157/6 276/171/6 277/172/6 262/158/6
f 262/158/6 277/172/6 278/173/6 263/159/6
f 263/159/6 278/173/6 279/174/6 264/160/6
f 264/160/6 279/174/6 280/175/6 265/161/6
f 265/161/6 280/175/6 281/176/6 266/162/6
f 266/162/6 281/176/6 282/177/6 267/163/6
f 267/163/6 282/177/6 19/21/6 16/18/6
f 72/19/6 75/22/6 283/178/6 268/164/6
f 268/164/6 283/178/6 284/179/6 269/165/6
f 269/165/6 284/179/6 285/180/6 270/166/6
f 270/166/6 285/180/6 286/181/6 271/167/6
f 271/167/6 286/181/6 287/182/6 272/168/6
f 272/168/6 287/182/6 288/183/6 273/169/6
f 273/169/6 288/183/6 289/184/6 274/170/6
f 274/170/6 289/184/6 290/23/6 275/20/6
f 275/20/6 290/23/6 291/185/6 276/171/6
f 276/171/6 291/185/6 292/186/6 277/172/6
f 277/172/6 292/186/6 293/187/6 278/173/6
f 278/173/6 293/187/6 294/188/6 279/174/6
f 279/174/6 294/188/6 295/189/6 280/175/6
f 280/175/6 295/189/6 296/190/6 281/176/6
f 281/176/6 296/190/6 297/191/6 282/177/6
f 282/177/6 297/191/6 22/24/6 19/21/6
f 75/22/6 78/25/6 298/52/6 283/178/6
f 283/178/6 298/52/6 299/54/6 284/179/6
f 284/179/6 299/54/6 300/56/6 285/180/6
f 285/180/6 300/56/6 301/58/6 286/181/6
f 286/181/6 301/58/6 302/60/6 287/182/6
f 287/182/6 302/60/6 303/62/6 288/183/6
f 288/183/6 303/62/6 304/64/6 289/184/6
f 289/184/6 304/64/6 305/26/6 290/23/6
f 290/23/6 305/26/6 306/66/6 291/185/6
f 291/185/6 306/66/6 307/68/6 292/186/6
f 292/186/6 307/68/6 308/70/6 293/187/6
f 293/187/6 308/70/6 309/72/6 294/188/6
f 294/188/6 309/72/6 310/74/6 295/189/6
f 295/189/6 310/74/6 311/76/6 296/190/6
f 296/190/6 311/76/6 312/78/6 297/191/6
f 297/191/6 312/78/6 25/27/6 22/24/6
f 78/25/6 81/28/6 313/192/6 298/52/6
f 298/52/6 313/192/6 314/193/6 299/54/6
f 299/54/6 314/193/6 315/194/6 300/56/6
f 300/56/6 315/194/6 316/195/6 301/58/6
f 301/58/6 316/195/6 317/196/6 302/60/6
f 302/60/6 317/196/6 318/197/6 303/62/6
f 303/62/6 318/197/6 319/198/6 304/64/6
f 304/64/6 319/198/6 320/29/6 305/26/6
f 305/26/6 320/29/6 321/199/6 306/66/6
f 306/66/6 321/199/6 322/200/6 307/68/6
f 307/68/6 322/200/6 323/201/6 308/70/6
f 308/70/6 323/201/6 324/202/6 309/72/6
f 309/72/6 324/202/6 325/203/6 310/74/6
f 310/74/6 325/203/6 326/204/6 311/76/6
f 311/76/6 326/204/6 327/205/6 312/78/6
f 312/78/6 327/205/6 28/30/6 25/27/6
f 81/28/6 84/31/6 328/206/6 313/192/6
f 313/192/6 328/206/6 329/207/6 314/193/6
f 314/193/6 329/207/6 330/208/6 315/194/6
f 315/194/6 330/208/6 331/209/6 316/195/6
f 316/195/6 331/209/6 332/210/6 317/196/6
f 317/196/6 332/210/6 333/211/6 318/197/6
f 318/197/6 333/211/6 334/212/6 319/198/6
f 319/198/6 334/212/6 335/32/6 320/29/6
f 320/29/6 335/32/6 336/213/6 321/199/6
f 321/199/6 336/213/6 337/214/6 322/200/6
f 322/200/6 337/214/6 338/215/6 323/201/6
f 323/201/6 338/215/6 339/216/6 324/202/6
f 324/202/6 339/216/6 340/217/6 325/203/6
f 325/203/6 340/217/6 341/218/6 326/204/6
f 326/204/6 341/218/6 342/219/6 327/205/6
f 327/205/6 342/219/6 31/33/6 28/30/6
f 84/31/6 87/34/6 343/220/6 328/206/6
f 328/206/6 343/220/6 344/221/6 329/207/6
f 329/207/6 344/221/6 345/222/6 330/208/6
f 330/208/6 345/222/6 346/223/6 331/209/6
f 331/209/6 346/223/6 347/224/6 332/210/6
f 332/210/6 347/224/6 348/225/6 333/211/6
f 333/211/6 348/225/6 349/226/6 334/212/6
f 334/212/6 349/226/6 350/35/6 335/32/6
f 335/32/6 350/35/6 351/227/6 336/213/6
f 336/213/6 351/227/6 352/228/6 337/214/6
f 337/214/6 352/228/6 353/229/6 338/215/6
f 338/215/6 353/229/6 354/230/6 339/216/6
f 339/216/6 354/230/6 355/231/6 340/217/6
f 340/217/6 355/231/6 356/232/6 341/218/6
f 341/218/6 356/232/6 357/233/6 342/219/6
f 342/219/6 357/233/6 34/36/6 31/33/6
f 87/34/6 90/37/6 358/234/6 343/220/6
f 343/220/6 358/234/6 359/235/6 344/221/6
f 344/221/6 359/235/6 360/236/6 345/222/6
f 345/222/6 360/236/6 361/237/6 346/223/6
f 346/223/6 361/237/6 362/238/6 347/224/6
f 347/224/6 362/238/6 363/239/6 348/225/6
f 348/225/6 363/239/6 364/240/6 349/226/6
f 349/226/6 364/240/6 365/38/6 350/35/6
f 350/35/6 365/38/6 366/241/6 351/227/6
f 351/227/6 366/241/6 367/242/6 352/228/6
f 352/228/6 367/242/6 368/243/6 353/229/6
f 353/229/6 368/243/6 369/244/6 354/230/6
f 354/230/6 369/244/6 370/245/6 355/231/6
f 355/231/6 370/245/6 371/246/6 356/232/6
f 356/232/6 371/246/6 372/247/6 357/233/6
f 357/233/6 372/247/6 37/39/6 34/36/6
f 90/37/6 93/40/6 373/248/6 358/234/6
f 358/234/6 373/248/6 374/249/6 359/235/6
f 359/235/6 374/249/6 375/250/6 360/236/6
f 360/236/6 375/250/6 376/251/6 361/237/6
f 361/237/6 376/251/6 377/252/6 362/238/6
f 362/238/6 377/252/6 378/253/6 363/239/6
f 363/239/6 378/253/6 379/254/6 364/240/6
f 364/240/6 379/254/6 380/41/6 365/38/6
f 365/38/6 380/41/6 381/255/6 366/241/6
f 366/241/6 381/255/6 382/256/6 367/242/6
f 367/242/6 382/256/6 383/257/6 368/243/6
f 368/243/6 383/257/6 384/258/6 369/244/6
f 369/244/6 384/258/6 385/259/6 370/245/6
f 370/245/6 385/259/6 386/260/6 371/246/6
f 371/246/6 386/260/6 387/261/6 372/247/6
f 372/247/6 387/261/6 40/42/6 37/39/6
f 93/40/6 96/43/6 388/262/6 373/248/6
f 373/248/6 388/262/6 389/263/6 374/249/6
f 374/249/6 389/263/6 390/264/6 375/250/6
f 375/250/6 390/264/6 391/265/6 376/251/6
f 376/251/6 391/265/6 392/266/6 377/252/6
f 377/252/6 392/266/6 393/267/6 378/253/6
f 378/253/6 393/267/6 394/268/6 379/254/6
f 379/254/6 394/268/6 395/44/6 380/41/6
f 380/41/6 395/44/6 396/269/6 381/255/6
f 381/255/6 396/269/6 397/270/6 382/256/6
f 382/256/6 397/270/6 398/271/6 383/257/6
f 383/257/6 398/271/6 399/272/6 384/258/6
f 384/258/6 399/272/6 400/273/6 385/259/6
f 385/259/6 400/273/6 401/274/6 386/260/6
f 386/260/6 401/274/6 402/275/6 387/261/6
f 387/261/6 402/275/6 43/45/6 40/42/6
f 96/43/6 99/46/6 403/276/6 388/262/6
f 388/262/6 403/276/6 404/277/6 389/263/6
f 389/263/6 404/277/6 405/278/6 390/264/6
f 390/264/6 405/278/6 406/279/6 391/265/6
f 391/265/6 406/279/6 407/280/6 392/266/6
f 392/266/6 407/280/6 408/281/6 393/267/6
f 393/267/6 408/281/6 409/282/6 394/268/6
f 394/268/6 409/282/6 410/47/6 395/44/6
f 395/44/6 410/47/6 411/283/6 396/269/6
f 396/269/6 411/283/6 412/284/6 397/270/6
f 397/270/6 412/284/6 413/285/6 398/271/6
f 398/271/6 413/285/6 414/286/6 399/272/6
f 399/272/6 414/286/6 415/287/6 400/273/6
f 400/273/6 415/287/6 416/288/6 401/274/6
f 401/274/6 416/288/6 417/289/6 402/275/6
f 402/275/6 417/289/6 46/48/6 43/45/6
f 99/46/6 102/49/6 148/80/6 403/276/6
f 403/276/6 148/80/6 149/81/6 404/277/6
f 404/277/6 149/81/6 150/82/6 405/278/6
f 405/278/6 150/82/6 151/83/6 406/279/6
f 406/279/6 151/83/6 152/84/6 407/280/6
f 407/280/6 152/84/6 153/85/6 408/281/6
f 408/281/6 153/85/6 154/86/6 409/282/6
f 409/282/6 154/86/6 155/50/6 410/47/6
f 410/47/6 155/50/6 156/87/6 411/283/6
f 411/283/6 156/87/6 157/88/6 412/284/6
f 412/284/6 157/88/6 158/89/6 413/285/6
f 413/285/6 158/89/6 159/90/6 414/286/6
f 414/286/6 159/90/6 160/91/6 415/287/6
f 415/287/6 160/91/6 161/92/6 416/288/6
f 416/288/6 161/92/6 162/93/6 417/289/6
f 417/289/6 162/93/6 49/51/6 46/48/6
f 3/1/7 6/2/7 418/94/7 117/53/7
f 117/53/7 418/94/7 419/95/7 116/55/7
f 116/55/7 419/95/7 420/96/7 115/57/7
f 115/57/7 420/96/7 421/97/7 114/59/7
f 114/59/7 421/97/7 422/98/7 113/61/7
f 113/61/7 422/98/7 423/99/7 112/63/7
f 112/63/7 423/99/7 424/100/7 111/65/7
f 111/65/7 424/100/7 425/3/7 110/4/7
f 110/4/7 425/3/7 426/101/7 109/67/7
f 109/67/7 426/101/7 427/102/7 108/69/7
f 108/69/7 427/102/7 428/103/7 107/71/7
f 107/71/7 428/103/7 429/104/7 106/73/7
f 106/73/7 429/104/7 430/105/7 105/75/7
f 105/75/7 430/105/7 431/106/7 104/77/7
f 104/77/7 431/106/7 432/107/7 103/79/7
f 103/79/7 432/107/7 55/5/7 52/6/7
f 6/2/7 9/7/7 433/108/7 418/94/7
f 418/94/7 433/108/7 434/109/7 419/95/7
f 419/95/7 434/109/7 435/110/7 420/96/7
f 420/96/7 435/110/7 436/111/7 421/97/7
f 421/97/7 436/111/7 437/112/7 422/98/7
f 422/98/7 437/112/7 438/113/7 423/99/7
f 423/99/7 438/113/7 439/114/7 424/100/7
f 424/100/7 439/114/7 440/8/7 425/3/7
f 425/3/7 440/8/7 441/115/7 426/101/7
f 426/101/7 441/115/7 442/116/7 427/102/7
f 427/102/7 442/116/7 443/117/7 428/103/7
f 428/103/7 443/117/7 444/118/7 429/104/7
f 429/104/7 444/118/7 445/119/7 430/105/7
f 430/105/7 445/119/7 446/120/7 431/106/7
f 431/106/7 446/120/7 447/121/7 432/107/7
f 432/107/7 447/121/7 58/9/7 55/5/7
f 9/7/7 12/10/7 448/122/7 433/108/7
f 433/108/7 448/122/7 449/123/7 434/109/7
f 434/109/7 449/123/7 450/124/7 435/110/7
f 435/110/7 450/124/7 451/125/7 436/111/7
f 436/111/7 451/125/7 452/126/7 437/112/7
f 437/112/7 452/126/7 453/127/7 438/113/7
f 438/113/7 453/127/7 454/128/7 439/114/7
f 439/114/7 454/128/7 455/11/7 440/8/7
f 440/8/7 455/11/7 456/129/7 441/115/7
f 441/115/7 456/129/7 457/130/7 442/116/7
f 442/116/7 457/130/7 458/131/7 443/117/7
f 443/117/7 458/131/7 459/132/7 444/118/7
f 444/118/7 459/132/7 460/133/7 445/119/7
f 445/119/7 460/133/7 461/134/7 446/120/7
f 446/120/7 461/134/7 462/135/7 447/121/7
f 447/121/7 462/135/7 61/12/7 58/9/7
f 12/10/7 15/13/7 463/136/7 448/122/7
f 448/122/7 463/136/7 464/137/7 449/123/7
f 449/123/7 464/137/7 465/138/7 450/124/7
f 450/124/7 465/138/7 466/139/7 451/125/7
f 451/125/7 466/139/7 467/140/7 452/126/7
f 452/126/7 467/140/7 468/141/7 453/127/7
f 453/127/7 468/141/7 469/142/7 454/128/7
f 454/128/7 469/142/7 470/14/7 455/11/7
f 455/11/7 470/14/7 471/143/7 456/129/7
f 456/129/7 471/143/7 472/144/7 457/130/7
f 457/130/7 472/144/7 473/145/7 458/131/7
f 458/131/7 473/145/7 474/146/7 459/132/7
f 459/132/7 474/146/7 475/147/7 460/133/7
f 460/133/7 475/147/7 476/148/7 461/134/7
f 461/134/7 476/148/7 477/149/7 462/135/7
f 462/135/7 477/149/7 64/15/7 61/12/7
f 15/13/7 18/16/7 478/150/7 463/136/7
f 463/136/7 478/150/7 479/151/7 464/137/7
f 464/137/7 479/151/7 480/152/7 465/138/7
f 465/138/7 480/152/7 481/153/7 466/139/7
f 466/139/7 481/153/7 482/154/7 467/140/7
f 467/140/7 482/154/7 483/155/7 468/141/7
f 468/141/7 483/155/7 484/156/7 469/142/7
f 469/142/7 484/156/7 485/17/7 470/14/7
f 470/14/7 485/17/7 486/157/7 471/143/7
f 471/143/7 486/157/7 487/158/7 472/144/7
f 472/144/7 487/158/7 488/159/7 473/145/7
f 473/145/7 488/159/7 489/160/7 474/146/7
f 474/146/7 489/160/7 490/161/7 475/147/7
f 475/147/7 490/161/7 491/162/7 476/148/7
f 476/148/7 491/162/7 492/163/7 477/149/7
f 477/149/7 492/163/7 67/18/7 64/15/7
f 18/16/7 21/19/7 493/164/7 478/150/7
f 478/150/7 493/164/7 494/165/7 479/151/7
f 479/151/7 494/165/7 495/166/7 480/152/7
f 480/152/7 495/166/7 496/167/7 481/153/7
f 481/153/7 496/167/7 497/168/7 482/154/7
f 482/154/7 497/168/7 498/169/7 483/155/7
f 483/155/7 498/169/7 499/170/7 484/156/7
f 484/156/7 499/170/7 500/20/7 485/17/7
f 485/17/7 500/20/7 501/171/7 486/157/7
f 486/157/7 501/171/7 502/172/7 487/158/7
f 487/158/7 502/172/7 503/173/7 488/159/7
f 488/159/7 503/173/7 504/174/7 489/160/7
f 489/160/7 504/174/7 505/175/7 490/161/7
f 490/161/7 505/175/7 506/176/7 491/162/7
f 491/162/7 506/176/7 507/177/7 492/163/7
f 492/163/7 507/177/7 70/21/7 67/18/7
f 21/19/7 24/22/7 508/178/7 493/164/7
f 493/164/7 508/178/7 509/179/7 494/165/7
f 494/165/7 509/179/7 510/180/7 495/166/7
f 495/166/7 510/180/7 511/181/7 496/167/7
f 496/167/7 511/181/7 512/182/7 497/168/7
f 497/168/7 512/182/7 513/183/7 498/169/7
f 498/169/7 513/183/7 514/184/7 499/170/7
f 499/170/7 514/184/7 515/23/7 500/20/7
f 500/20/7 515/23/7 516/185/7 501/171/7
f 501/171/7 516/185/7 517/186/7 502/172/7
f 502/172/7 517/186/7 518/187/7 503/173/7
f 503/173/7 518/187/7 519/188/7 504/174/7
f 504/174/7 519/188/7 520/189/7 505/175/7
f 505/175/7 520/189/7 521/190/7 506/176/7
f 506/176/7 521/190/7 522/191/7 507/177/7
f 507/177/7 522/191/7 73/24/7 70/21/7
f 24/22/7 27/25/7 523/52/7 508/178/7
f 508/178/7 523/52/7 524/54/7 509/179/7
f 509/179/7 524/54/7 525/56/7 510/180/7
f 510/180/7 525/56/7 526/58/7 511/181/7
f 511/181/7 526/58/7 527/60/7 512/182/7
f 512/182/7 527/60/7 528/62/7 513/183/7
f 513/183/7 528/62/7 529/64/7 514/184/7
f 514/184/7 529/64/7 530/26/7 515/23/7
f 515/23/7 530/26/7 531/66/7 516/185/7
f 516/185/7 531/66/7 532/68/7 517/186/7
f 517/186/7 532/68/7 533/70/7 518/187/7
f 518/187/7 533/70/7 534/72/7 519/188/7
f 519/188/7 534/72/7 535/74/7 520/189/7
f 520/189/7 535/74/7 536/76/7 521/190/7
f 521/190/7 536/76/7 537/78/7 522/191/7
f 522/191/7 537/78/7 76/27/7 73/24/7
f 27/25/7 30/28/7 538/192/7 523/52/7
f 523/52/7 538/192/7 539/193/7 524/54/7
f 524/54/7 539/193/7 540/194/7 525/56/7
f 525/56/7 540/194/7 541/195/7 526/58/7
f 526/58/7 541/195/7 542/196/7 527/60/7
f 527/60/7 542/196/7 543/197/7 528/62/7
f 528/62/7 543/197/7 544/198/7 529/64/7
f 529/64/7 544/198/7 545/29/7 530/26/7
f 530/26/7 545/29/7 546/199/7 531/66/7
f 531/66/7 546/199/7 547/200/7 532/68/7
f 532/68/7 547/200/7 548/201/7 533/70/7
f 533/70/7 548/201/7 549/202/7 534/72/7
f 534/72/7 549/202/7 550/203/7 535/74/7
f 535/74/7 550/203/7 551/204/7 536/76/7
f 536/76/7 551/204/7 552/205/7 537/78/7
f 537/78/7 552/205/7 79/30/7 76/27/7
f 30/28/7 33/31/7 553/206/7 538/192/7
f 538/192/7 553/206/7 554/207/7 539/193/7
f 539/193/7 554/207/7 555/208/7 540/194/7
f 540/194/7 555/208/7 556/209/7 541/195/7
f 541/195/7 556/209/7 557/210/7 542/196/7
f 542/196/7 557/210/7 558/211/7 543/197/7
f 543/197/7 558/211/7 559/212/7 544/198/7
f 544/198/7 559/212/7 560/32/7 545/29/7
f 545/29/7 560/32/7 561/213/7 546/199/7
f 546/199/7 561/213/7 562/214/7 547/200/7
f 547/200/7 562/214/7 563/215/7 548/201/7
f 548/201/7 563/215/7 564/216/7 549/202/7
f 549/202/7 564/216/7 565/217/7 550/203/7
f 550/203/7 565/217/7 566/218/7 551/204/7
f 551/204/7 566/218/7 567/219/7 552/205/7
f 552/205/7 567/219/7 82/33/7 79/30/7
f 33/31/7 36/34/7 568/220/7 553/206/7
f 553/206/7 568/220/7 569/221/7 554/207/7
f 554/207/7 569/221/7 570/222/7 555/208/7
f 555/208/7 570/222/7 571/223/7 556/209/7
f 556/209/7 571/223/7 572/224/7 557/210/7
f 557/210/7 572/224/7 573/225/7 558/211/7
f 558/211/7 573/225/7 574/226/7 559/212/7
f 559/212/7 574/226/7 575/35/7 560/32/7
f 560/32/7 575/35/7 576/227/7 561/213/7
f 561/213/7 576/227/7 577/228/7 562/214/7
f 562/214/7 577/228/7 578/229/7 563/215/7
f 563/215/7 578/229/7 579/230/7 564/216/7
f 564/216/7 579/230/7 580/231/7 565/217/7
f 565/217/7 580/231/7 581/232/7 566/218/7
f 566/218/7 581/232/7 582/233/7 567/219/7
f 567/219/7 582/233/7 85/36/7 82/33/7
f 36/34/7 39/37/7 583/234/7 568/220/7
f 568/220/7 583/234/7 584/235/7 569/221/7
f 569/221/7 584/235/7 585/236/7 570/222/7
f 570/222/7 585/236/7 586/237/7 571/223/7
f 571/223/7 586/237/7 587/238/7 572/224/7
f 572/224/7 587/238/7 588/239/7 573/225/7
f 573/225/7 588/239/7 589/240/7 574/226/7
f 574/226/7 589/240/7 590/38/7 575/35/7
f 575/35/7 590/38/7 591/241/7 576/227/7
f 576/227/7 591/241/7 592/242/7 577/228/7
f 577/228/7 592/242/7 593/243/7 578/229/7
f 578/229/7 593/243/7 594/244/7 579/230/7
f 579/230/7 594/244/7 595/245/7 580/231/7
f 580/231/7 595/245/7 596/246/7 581/232/7
f 581/232/7 596/246/7 597/247/7 582/233/7
f 582/233/7 597/247/7 88/39/7 85/36/7
f 39/37/7 42/40/7 598/248/7 583/234/7
f 583/234/7 598/248/7 599/249/7 584/235/7
f 584/235/7 599/249/7 600/250/7 585/236/7
f 585/236/7 600/250/7 601/251/7 586/237/7
f 586/237/7 601/251/7 602/252/7 587/238/7
f 587/238/7 602/252/7 603/253/7 588/239/7
f 588/239/7 603/253/7 604/254/7 589/240/7
f 589/240/7 604/254/7 605/41/7 590/38/7
f 590/38/7 605/41/7 606/255/7 591/241/7
f 591/241/7 606/255/7 607/256/7 592/242/7
f 592/242/7 607/256/7 608/257/7 593/243/7
f 593/243/7 608/257/7 609/258/7 594/244/7
f 594/244/7 609/258/7 610/259/7 595/245/7
f 595/245/7 610/259/7 611/260/7 596/246/7
f 596/246/7 611/260/7 612/261/7 597/247/7
f 597/247/7 612/261/7 91/42/7 88/39/7
f 42/40/7 45/43/7 613/262/7 598/248/7
f 598/248/7 613/262/7 614/263/7 599/249/7
f 599/249/7 614/263/7 615/264/7 600/250/7
f 600/250/7 615/264/7 616/265/7 601/251/7
f 601/251/7 616/265/7 617/266/7 602/252/7
f 602/252/7 617/266/7 618/267/7 603/253/7
f 603/253/7 618/267/7 619/268/7 604/254/7
f 604/254/7 619/268/7 620/44/7 605/41/7
f 605/41/7 620/44/7 621/269/7 606/255/7
f 606/255/7 621/269/7 622/270/7 607/256/7
f 607/256/7 622/270/7 623/271/7 608/257/7
f 608/257/7 623/271/7 624/272/7 609/258/7
f 609/258/7 624/272/7 625/273/7 610/259/7
f 610/259/7 625/273/7 626/274/7 611/260/7
f 611/260/7 626/274/7 627/275/7 612/261/7
f 612/261/7 627/275/7 94/45/7 91/42/7
f 45/43/7 48/46/7 628/276/7 613/262/7
f 613/262/7 628/276/7 629/277/7 614/263/7
f 614/263/7 629/277/7 630/278/7 615/264/7
f 615/264/7 630/278/7 631/279/7 616/265/7
f 616/265/7 631/279/7 632/280/7 617/266/7
f 617/266/7 632/280/7 633/281/7 618/267/7
f 618/267/7 633/281/7 634/282/7 619/268/7
f 619/268/7 634/282/7 635/47/7 620/44/7
f 620/44/7 635/47/7 636/283/7 621/269/7
f 621/269/7 636/283/7 637/284/7 622/270/7
f 622/270/7 637/284/7 638/285/7 623/271/7
f 623/271/7 638/285/7 639/286/7 624/272/7
f 624/272/7 639/286/7 640/287/7 625/273/7
f 625/273/7 640/287/7 641/288/7 626/274/7
f 626/274/7 641/288/7 642/289/7 627/275/7
f 627/275/7 642/289/7 97/48/7 94/45/7
f 48/46/7 51/49/7 192/80/7 628/276/7
f 628/276/7 192/80/7 191/81/7 629/277/7
f 629/277/7 191/81/7 190/82/7 630/278/7
f 630/278/7 190/82/7 189/83/7 631/279/7
f 631/279/7 189/83/7 188/84/7 632/280/7
f 632/280/7 188/84/7 187/85/7 633/281/7
f 633/281/7 187/85/7 186/86/7 634/282/7
f 634/282/7 186/86/7 185/50/7 635/47/7
f 635/47/7 185/50/7 184/87/7 636/283/7
f 636/283/7 184/87/7 183/88/7 637/284/7
f 637/284/7 183/88/7 182/89/7 638/285/7
f 638/285/7 182/89/7 181/90/7 639/286/7
f 639/286/7 181/90/7 180/91/7 640/287/7
f 640/287/7 180/91/7 179/92/7 641/288/7
f 641/288/7 179/92/7 178/93/7 642/289/7
f 642/289/7 178/93/7 100/51/7 97/48/7
