# Blender MTL File: 'Axe.blend'
# Material Count: 2

newmtl HandlePBR
Ns 225.000000
Ka 1.000000 1.000000 1.000000
Kd 0.800000 0.800000 0.800000
Ks 0.500000 0.500000 0.500000
Ke 0.000000 0.000000 0.000000
Ni 1.450000
d 1.000000
illum 2
map_Bump Textures\\Normal.png
map_Kd Textures\\Diffuse.png
map_Ns Textures\\Roughness.png
refl Textures\\Metalness.png

newmtl HeadPBR
Ns 225.000000
Ka 1.000000 1.000000 1.000000
Kd 0.800000 0.800000 0.800000
Ks 0.500000 0.500000 0.500000
Ke 0.000000 0.000000 0.000000
Ni 1.450000
d 1.000000
illum 2
map_Bump Textures\\Normal.png
map_Kd Textures\\Diffuse.png
map_Ns Textures\\Roughness.png
refl Textures\\Metalness.png
